Timestamp,# de participant,J'étais engagé envers mes objectifs.,Je me suis soucié d'atteindre mes objectifs,C'était important pour moi de performer à cette tâche.,J'ai déployé beaucoup d'efforts dans la présente tâche.,J'étais surchargé par cette tâche.,J'étais sous stimulé par cette tâche.,
,,,,,,,,
11/11/2016 11:17:40,1,5,5,5,5,3,5,
11/11/2016 11:28:11,1,5,5,5,4,5,5,
11/11/2016 14:06:54,1,4,4,5,5,5,2,
11/11/2016 14:11:15,1,4,5,4,5,5,1,
11/11/2016 14:15:25,1,5,5,5,5,4,1,
11/11/2016 14:20:18,1,5,4,5,5,5,1,
11/11/2016 14:24:04,1,5,4,5,5,5,1,
11/11/2016 14:28:24,1,5,4,5,5,5,1,
11/11/2016 14:28:29,1,5,4,5,5,5,1,
11/11/2016 14:32:19,1,4,5,5,5,5,1,
11/11/2016 14:35:57,1,5,4,4,5,4,1,
11/11/2016 14:39:55,1,4,4,5,5,5,1,
11/11/2016 14:43:50,1,5,5,5,5,4,1,
11/11/2016 14:47:32,1,4,4,4,4,5,1,
11/11/2016 14:51:25,1,4,4,5,5,5,1,
11/11/2016 14:55:14,1,4,4,5,5,5,1,
11/11/2016 15:00:14,1,5,5,5,5,4,1,
11/11/2016 15:00:15,1,5,5,5,5,4,1,
11/11/2016 15:04:41,1,5,4,4,5,5,5,
11/11/2016 15:08:14,1,5,5,4,5,4,1,
11/11/2016 15:11:42,1,4,4,4,5,4,1,
11/11/2016 15:15:42,1,5,5,5,4,5,1,
11/11/2016 15:19:37,1,4,4,4,4,5,1,
11/11/2016 15:23:23,1,5,5,5,5,4,1,
11/11/2016 15:27:04,1,5,5,4,4,5,1,
11/22/2016 13:39:40,02-1,5,5,5,4,3,1,
11/22/2016 13:43:36,02-2,5,5,5,4,3,1,
11/22/2016 13:47:14,02-3,5,5,5,4,3,1,
11/22/2016 13:50:42,02-4,5,5,5,4,3,1,
11/22/2016 13:54:53,02-5,5,5,5,4,2,1,
11/22/2016 13:58:35,02-6,5,5,5,4,3,1,
11/22/2016 14:02:04,02-7,5,5,5,4,2,1,
11/22/2016 14:05:38,02-8,5,5,4,5,3,1,
11/22/2016 14:09:04,02-9,5,5,5,4,3,1,
11/22/2016 14:12:37,02-10,5,5,5,4,3,1,
11/22/2016 14:16:01,02-11,5,5,5,4,3,1,
11/22/2016 14:19:42,02-12,5,5,5,4,3,1,
11/22/2016 14:23:15,02-13,5,5,5,4,2,1,
11/22/2016 14:26:41,02-14,5,5,5,4,2,1,
11/22/2016 14:30:06,02-15,5,5,5,4,3,1,
11/22/2016 14:37:38,02-17,5,5,5,4,2,1,
11/22/2016 14:34:12,02-16,5,5,5,4,2,1,
11/22/2016 14:41:04,02-18,5,5,5,4,3,1,
11/22/2016 14:44:31,02-19,5,5,5,4,2,1,
11/22/2016 14:48:11,2-20,5,5,5,5,2,1,
11/22/2016 14:51:36,02-21,5,5,5,4,3,1,
11/22/2016 14:55:03,02-22,5,5,5,5,3,1,
11/22/2016 14:58:28,02-23,5,5,5,4,3,1,
11/22/2016 15:01:57,02-24,5,5,5,5,3,1,
11/24/2016 9:13:26,03-01,4,5,4,5,4,1,
11/24/2016 9:17:36,03-02,5,5,4,4,2,1,
11/24/2016 9:21:25,03-03,5,5,5,5,4,1,
11/24/2016 9:25:09,03-04,5,5,5,5,2,1,
11/24/2016 9:28:56,03-05,5,5,5,5,2,1,
11/24/2016 9:33:01,03-06,4,5,5,5,2,1,
11/24/2016 9:36:44,03-07,5,5,5,4,2,1,
11/24/2016 9:40:38,03-08,4,5,4,5,3,1,
11/24/2016 9:44:22,03-09,5,5,5,5,2,1,
11/24/2016 9:48:14,03-10,5,5,5,5,2,1,
11/24/2016 9:55:21,03-11,4,5,5,5,3,1,
11/24/2016 9:59:18,03-12,5,5,5,4,2,1,
11/24/2016 10:03:04,03-13,5,5,5,5,1,1,
11/24/2016 10:06:47,03-14,5,5,5,5,3,1,
11/24/2016 10:10:25,03-14,5,5,5,5,2,1,
11/24/2016 10:14:05,03-16,5,5,5,5,3,1,
11/24/2016 10:17:56,03-17,4,5,4,4,3,1,
11/24/2016 10:21:53,03-18,4,5,4,4,3,1,
11/24/2016 10:25:40,03-19,4,4,4,5,2,1,
11/24/2016 10:29:23,03-20,4,4,4,5,3,2,
11/24/2016 10:33:07,03-21,4,5,3,4,2,2,
11/24/2016 10:40:16,03-22,4,4,3,4,2,1,
11/24/2016 10:40:54,03-23,3,4,3,3,1,3,
11/24/2016 10:44:39,03-24,5,5,5,5,1,3,
11/29/2016 11:26:54,05-1,4,5,4,5,4,1,
11/29/2016 11:30:31,05-2,4,4,4,5,5,2,
11/29/2016 11:34:06,05-3,4,4,4,5,5,1,
11/29/2016 11:37:43,05-4,4,4,4,5,4,1,
11/29/2016 11:41:31,05-5,4,4,4,5,4,2,
11/29/2016 11:45:15,05-6,5,4,4,4,5,2,
11/29/2016 11:48:49,05-7,5,4,4,4,5,2,
11/29/2016 11:52:29,05-8,4,4,4,5,4,2,
11/29/2016 11:56:08,05-9,5,4,4,5,5,2,
11/29/2016 11:59:47,05-10,5,4,4,4,5,2,
11/29/2016 12:03:32,05-11,4,4,4,4,4,2,
11/29/2016 12:07:02,05-12,4,4,4,4,4,2,
11/29/2016 12:10:46,05-13,4,4,4,4,4,2,
11/29/2016 12:14:34,05-14,4,4,4,4,4,2,
11/29/2016 12:18:14,05-15,4,4,4,4,4,2,
11/29/2016 12:22:08,05-16,4,4,4,4,4,2,
11/29/2016 12:25:37,05-17,4,4,4,4,3,2,
11/29/2016 12:29:33,05-18,4,4,3,4,4,2,
11/29/2016 12:33:12,05-19,4,3,4,4,4,2,
11/29/2016 12:36:44,05-20,4,4,3,4,4,2,
11/29/2016 12:40:52,05-21,4,4,3,4,4,2,
11/29/2016 12:44:28,05-22,4,4,3,4,3,2,
11/29/2016 12:48:38,05-23,4,4,4,4,3,2,
11/29/2016 12:52:38,05-24,4,4,4,4,3,2,
11/29/2016 15:25:31,04-1,5,5,5,5,5,1,
11/29/2016 15:30:06,04-2,5,5,5,5,5,1,
11/29/2016 15:34:15,04-3,5,5,5,5,5,1,
11/29/2016 15:38:06,04-4,5,5,5,5,5,1,
11/29/2016 15:42:24,04-5,5,5,5,5,5,1,
11/29/2016 15:46:11,04-6,5,5,5,5,5,5,
11/29/2016 15:49:49,04-7,5,5,5,5,5,1,
11/29/2016 15:53:47,04-8,5,5,5,5,5,1,
11/29/2016 15:58:54,04-9,5,5,5,5,5,1,
11/29/2016 16:02:56,04-10,5,5,5,5,5,1,
11/29/2016 16:07:05,04-11,5,5,5,5,5,1,
11/29/2016 16:12:03,04-12,5,5,5,5,5,1,
11/29/2016 16:15:34,04-13,5,5,5,5,5,1,
11/29/2016 16:19:07,04-14,5,5,5,5,5,1,
11/29/2016 16:23:15,04-15,5,5,5,5,5,1,
11/29/2016 16:27:17,04-16,5,5,5,5,5,1,
11/29/2016 16:31:13,04-17,5,5,5,5,5,1,
11/29/2016 16:35:06,04-18,5,5,5,5,5,1,
11/29/2016 16:38:58,04-19,5,5,5,5,5,1,
11/29/2016 16:42:24,04-20,5,5,5,5,5,1,
11/29/2016 16:46:27,04-21,5,5,5,5,5,1,
11/29/2016 16:49:55,04-22,5,5,5,5,5,1,
11/29/2016 16:53:30,04-23,5,5,5,5,5,1,
11/29/2016 16:57:40,04-24,5,5,5,5,5,1,
12/2/2016 10:28:49,08-1,5,5,5,5,4,1,
12/2/2016 10:32:36,08-2,5,5,5,5,5,1,
12/2/2016 10:36:23,08-3,5,5,5,5,4,1,
12/2/2016 10:40:01,08-4,5,5,5,5,5,1,
12/2/2016 10:43:42,08-5,5,5,5,4,4,1,
12/2/2016 10:47:20,08-6,5,5,5,5,5,1,
12/2/2016 10:50:57,08-7,5,5,5,5,5,1,
12/2/2016 10:54:39,08-8,5,5,5,5,4,1,
12/2/2016 10:58:13,08-9,5,5,5,5,5,1,
12/2/2016 11:01:58,08-10,5,5,5,5,4,1,
12/2/2016 11:05:33,08-11,5,5,5,5,4,1,
12/2/2016 11:09:13,08-12,5,5,5,5,5,1,
12/2/2016 11:12:42,08-13,5,5,5,5,4,1,
12/2/2016 11:16:28,08-14,5,5,5,5,4,1,
12/2/2016 11:20:07,08-15,5,5,5,4,4,1,
12/2/2016 11:23:54,08-16,5,5,5,4,4,1,
12/2/2016 11:27:35,08-17,5,5,5,4,4,1,
12/2/2016 11:31:19,08-18,5,5,5,4,4,2,
12/2/2016 11:34:58,08-19,4,4,5,4,4,2,
12/2/2016 11:38:38,08-20,4,4,5,4,4,2,
12/2/2016 11:42:19,08-21,4,4,5,4,3,2,
12/2/2016 11:46:00,08-22,5,5,5,4,3,2,
12/2/2016 11:49:40,08-23,5,5,5,4,3,2,
12/2/2016 11:53:11,08-24,5,5,5,4,3,2,
12/5/2016 13:40:23,9-1,5,5,5,5,5,1,
12/5/2016 13:44:09,9-2,5,5,5,5,5,1,
12/5/2016 13:48:02,9-3,5,5,5,5,5,1,
12/5/2016 13:51:36,9-4,5,5,5,5,5,1,
12/5/2016 13:55:18,9-5,5,5,5,5,5,1,
12/5/2016 13:58:56,9-6,5,5,5,5,5,1,
12/5/2016 14:02:40,9-7,5,5,5,5,5,1,
12/5/2016 14:07:52,9-8,5,5,5,5,5,1,
12/5/2016 14:11:36,9-9,5,5,5,5,5,1,
12/5/2016 14:15:12,9-10,5,5,5,5,5,1,
12/5/2016 14:19:25,9-11,5,5,5,5,5,1,
12/5/2016 14:23:04,9-12,5,5,5,5,5,1,
12/5/2016 14:26:40,9-13,5,5,5,5,5,1,
12/5/2016 14:30:17,9-14,5,5,5,5,5,1,
12/5/2016 14:33:52,9-15,5,5,5,5,5,1,
12/5/2016 14:37:38,9-16,5,5,5,5,5,1,
12/5/2016 14:41:17,9-17,5,5,5,5,5,1,
12/5/2016 14:44:52,9-18,5,5,5,5,5,1,
12/5/2016 14:48:49,9-19,5,5,5,4,4,1,
12/5/2016 14:52:42,9-20,5,5,5,4,4,1,
12/5/2016 14:56:17,9-21,5,5,5,4,4,1,
12/5/2016 14:59:59,9-22,5,5,5,4,4,2,
12/5/2016 15:03:37,9-23,5,5,5,4,4,2,
12/5/2016 15:07:13,9-24,5,5,5,4,4,2,
12/6/2016 11:19:25,10-1,3,3,3,3,4,1,
12/6/2016 11:20:23,10-2,4,3,4,3,4,1,
12/6/2016 11:26:45,10-3,3,3,4,3,4,1,
12/6/2016 11:30:56,10-4,4,4,4,4,2,1,
12/6/2016 11:34:43,10-5,4,4,4,3,3,1,
12/6/2016 11:38:39,10-6,4,4,4,3,3,1,
12/6/2016 11:42:20,10-7,4,4,4,4,3,1,
12/6/2016 11:45:57,10-8,4,4,4,4,3,1,
12/6/2016 11:49:30,10-9,4,4,4,4,3,1,
12/6/2016 11:53:18,10-10,4,4,4,3,3,1,
12/6/2016 11:56:59,10-11,4,4,4,3,4,1,
12/6/2016 12:00:30,10-12,4,4,4,4,3,1,
12/6/2016 12:04:11,10-13,4,4,4,5,2,1,
12/6/2016 12:07:49,10-14,4,4,4,5,2,1,
12/6/2016 12:11:53,10-15,4,4,4,5,2,1,
12/6/2016 12:15:32,10-16,4,4,4,5,1,1,
12/6/2016 12:19:08,10-17,4,4,4,5,3,1,
12/6/2016 12:22:44,10-18,4,4,4,4,2,1,
12/6/2016 12:26:12,10-19,4,4,4,5,1,1,
12/6/2016 12:29:47,10-20,4,5,5,5,1,1,
12/6/2016 12:33:22,10-21,4,4,4,5,1,1,
12/6/2016 12:37:00,10-22,4,5,5,5,1,1,
12/6/2016 12:40:36,10-23,5,4,4,4,1,1,
12/6/2016 12:44:15,10-24,4,4,5,4,1,1,
12/7/2016 15:17:02,11-1,5,5,5,5,4,1,
12/7/2016 15:20:44,11-2,5,5,5,5,3,1,
12/7/2016 15:24:09,11-3,5,5,5,5,2,1,
12/7/2016 15:27:41,11-4,5,5,5,5,1,1,
12/7/2016 15:31:20,11-5,5,5,5,1,1,1,
12/7/2016 15:34:53,11-6,5,5,5,1,1,1,
12/7/2016 15:38:26,11-7,3,5,5,3,1,1,
12/7/2016 15:41:51,11-8,5,5,5,3,1,1,
12/7/2016 15:45:21,11-9,4,3,3,2,1,1,
12/7/2016 15:48:47,11-10,5,5,5,1,1,1,
12/7/2016 15:52:27,11-11,5,5,5,1,1,1,
12/7/2016 15:56:18,11-12,5,5,5,1,1,1,
12/7/2016 15:59:45,11-13,5,5,5,1,1,1,
12/7/2016 16:03:07,11-14,5,5,5,1,1,1,
12/7/2016 16:06:29,11-15,2,3,3,1,1,1,
12/7/2016 16:09:49,11-16,5,5,5,1,1,1,
12/7/2016 16:13:18,11-17,5,5,5,1,1,1,
12/7/2016 16:16:46,11-18,5,5,5,1,1,1,
12/7/2016 16:20:08,11-19,5,5,5,1,1,1,
12/7/2016 16:23:34,11-20,1,1,1,1,1,1,
12/7/2016 16:27:06,11-21,3,3,3,1,1,1,
12/7/2016 16:30:33,11-22,5,5,5,1,1,1,
12/7/2016 16:34:00,11-23,5,5,5,1,1,1,
12/7/2016 16:37:51,11-24,5,5,5,1,1,1,
12/8/2016 12:06:23,6-1,5,5,5,5,4,1,
12/8/2016 12:10:02,6-2,5,5,5,5,4,1,
12/8/2016 12:13:35,6-3,5,5,5,5,5,1,
12/8/2016 12:17:13,6-4,5,5,5,5,5,1,
12/8/2016 12:21:00,6-5,5,5,5,5,5,1,
12/8/2016 12:24:39,6-6,5,5,5,5,5,1,
12/8/2016 12:29:39,6-7,5,5,5,5,5,1,
12/8/2016 12:33:21,6-8,5,4,5,5,5,1,
12/8/2016 12:37:01,6-9,5,5,5,4,5,1,
12/8/2016 12:40:46,6-10,5,5,5,5,5,1,
12/8/2016 12:44:27,6-11,5,5,5,5,5,1,
12/8/2016 12:48:18,6-12,5,5,5,5,5,1,
12/8/2016 12:51:56,6-13,5,5,5,5,5,1,
12/8/2016 12:55:41,6-14,5,5,5,5,4,1,
12/8/2016 12:59:35,6-15,5,5,5,5,4,1,
12/8/2016 13:03:16,6-16,5,5,5,4,4,1,
12/8/2016 13:06:50,6-17,5,5,5,5,5,1,
12/8/2016 13:10:32,6-18,5,5,5,5,5,1,
12/8/2016 13:14:04,6-19,5,5,5,5,4,1,
12/8/2016 13:17:36,6-20,5,5,5,4,4,1,
12/8/2016 13:21:07,6-21,5,5,5,4,5,1,
12/8/2016 13:24:40,6-22,5,5,5,5,5,1,
12/8/2016 13:28:18,6-23,5,5,5,4,4,1,
12/8/2016 13:31:53,6-24,5,5,5,5,5,1,
12/13/2016 10:59:58,15-1,3,4,4,4,5,1,
12/13/2016 11:04:23,15-2,5,5,5,5,5,1,
12/13/2016 11:26:58,15-8,5,5,5,5,5,1,
12/13/2016 11:08:04,15-3,5,5,5,5,4,1,
12/13/2016 11:11:42,15-4,4,5,4,4,5,1,
12/13/2016 11:15:25,15-5,4,5,5,5,4,1,
12/13/2016 11:19:05,15-6,5,5,5,5,5,1,
12/13/2016 11:22:47,15-7,4,5,4,5,5,1,
12/13/2016 11:30:31,15-9,5,5,5,5,5,1,
12/13/2016 11:33:59,15-10,4,5,5,5,5,1,
12/13/2016 11:37:36,15-11,5,5,5,5,5,1,
12/13/2016 11:42:13,15-12,4,4,5,5,5,1,
12/13/2016 11:45:56,15-13,4,4,4,4,5,1,
12/13/2016 11:49:38,15-14,5,5,5,5,5,1,
12/13/2016 11:53:12,15-15,4,4,4,4,5,1,
12/13/2016 11:56:59,15-16,4,3,4,3,5,1,
12/13/2016 12:01:04,15-17,4,4,4,4,4,1,
12/13/2016 12:04:43,15-18,4,4,4,4,5,1,
12/13/2016 12:08:50,15-19,4,4,3,3,4,1,
12/13/2016 12:12:33,15-20,4,4,4,4,4,1,
12/13/2016 12:16:18,15-21,4,4,4,4,4,1,
12/13/2016 12:20:06,15-22,4,4,4,5,3,1,
12/13/2016 12:23:52,15-23,4,4,4,4,4,1,
12/13/2016 12:27:28,15-24,4,4,4,4,4,1,
12/14/2016 9:42:11,12-1,5,5,5,5,5,1,13-1
12/14/2016 9:46:27,12-2,4,4,4,5,5,1,13-2
12/14/2016 9:50:25,12-3,5,5,4,5,5,1,13-3
12/14/2016 9:54:46,12-4,5,5,4,4,4,1,13-4
12/14/2016 9:58:59,12-5,4,4,4,5,5,1,13-5
12/14/2016 10:02:59,12-6,5,5,4,4,4,1,13-6
12/14/2016 10:06:50,12-7,4,4,4,3,3,1,13-7
12/14/2016 10:10:36,12-8,4,4,3,3,3,1,13-8
12/14/2016 10:14:31,12-9,3,3,3,3,3,2,13-9
12/14/2016 10:18:11,12-9,4,4,3,3,3,2,13-10
12/14/2016 10:21:56,12-11,3,3,2,3,3,2,13-11
12/14/2016 10:25:32,12-12,3,3,3,3,3,2,13-12
12/14/2016 10:29:13,12-13,4,4,3,4,4,1,13-13
12/14/2016 10:33:07,12-14,2,2,2,4,5,4,13-14
12/14/2016 10:36:55,12-15,4,4,4,4,3,2,13-15
12/14/2016 10:41:29,12-16,4,4,4,5,4,1,13-16
12/14/2016 10:45:13,12-17,3,3,3,3,3,3,13-17
12/14/2016 10:48:51,12-18,3,3,3,3,3,3,13-18
12/14/2016 10:52:37,12-19,3,3,3,3,3,3,13-19
12/14/2016 10:56:27,12-20,2,2,2,3,3,2,13-20
12/14/2016 11:00:08,12-21,2,2,2,2,2,3,13-21
12/14/2016 11:03:48,12-22,2,2,2,2,2,4,13-22
12/14/2016 11:07:29,12-23,2,2,1,2,2,5,13-23
12/14/2016 11:11:25,12-24,4,4,3,4,2,1,13-24
12/14/2016 13:41:47,16-1,5,5,5,5,5,1,
12/14/2016 13:45:29,16-2,5,5,5,5,5,1,
12/14/2016 13:49:00,16-3,5,5,5,5,5,1,
12/14/2016 13:52:37,16-4,5,5,5,5,5,1,
12/14/2016 13:56:17,16-5,5,5,5,5,5,1,
12/14/2016 13:59:41,16-6,5,5,5,5,5,1,
12/14/2016 14:03:06,16-7,5,5,5,5,5,1,
12/14/2016 14:06:41,16-8,5,5,5,5,5,1,
12/14/2016 14:10:05,16-9,5,5,5,5,5,1,
12/14/2016 14:13:34,16-10,5,5,5,5,5,1,
12/14/2016 14:16:55,16-11,5,5,5,5,5,1,
12/14/2016 14:20:24,16-12,5,5,5,5,5,1,
12/14/2016 14:23:48,16-13,5,5,5,5,5,1,
12/14/2016 14:27:09,16-14,5,5,5,5,5,1,
12/14/2016 14:30:51,16-15,5,5,5,5,5,1,
12/14/2016 14:34:28,16-16,5,5,5,5,5,1,
12/14/2016 14:37:56,16-17,5,5,5,5,5,1,
12/14/2016 14:41:47,16-18,5,5,5,5,5,3,
12/14/2016 14:45:09,16-19,5,5,5,5,5,3,
12/14/2016 14:48:33,16-20,5,5,5,5,5,3,
12/14/2016 14:51:59,16-21,5,5,5,5,5,3,
12/14/2016 14:55:24,16-22,5,5,5,5,5,3,
12/14/2016 14:58:50,16-23,5,5,5,5,5,3,
12/14/2016 15:02:11,16-24,5,5,5,5,5,3,
12/16/2016 10:13:01,14-1,4,3,4,4,5,1,12-1
12/16/2016 10:16:50,14-2,4,4,4,5,5,1,12-2
12/16/2016 10:20:31,14-3,4,4,4,5,5,1,12-3
12/16/2016 10:24:07,14-4,4,5,5,5,5,1,12-4
12/16/2016 10:27:54,14-5,4,5,5,5,5,1,12-5
12/16/2016 10:31:35,14-6,4,5,5,5,5,1,12-6
12/16/2016 10:35:21,14-7,4,5,5,5,5,1,12-7
12/16/2016 10:39:05,14-8,4,4,5,5,5,1,12-8
12/16/2016 10:42:41,14-9,4,4,5,5,5,1,12-9
12/16/2016 10:46:23,14-10,4,5,5,5,5,1,12-10
12/16/2016 10:50:08,14-11,4,5,5,5,5,1,12-11
12/16/2016 10:56:13,14-12,4,5,5,5,5,1,12-12
12/16/2016 10:59:55,14-13,4,5,5,5,5,1,12-13
12/16/2016 11:04:01,14-14,4,4,5,5,5,1,12-14
12/16/2016 11:07:46,14-15,4,4,5,5,5,1,12-15
12/16/2016 11:11:24,14-16,4,4,5,5,5,1,12-16
12/16/2016 11:15:07,14-17,4,4,5,5,5,1,12-17
12/16/2016 11:18:46,14-18,4,4,5,5,5,1,12-18
12/16/2016 11:22:33,14-19,4,4,5,5,5,1,12-19
12/16/2016 11:27:04,14-20,4,4,5,5,5,1,12-20
12/16/2016 11:30:41,14-21,4,4,5,4,5,1,12-21
12/16/2016 11:34:12,14-22,4,4,4,4,5,1,12-22
12/16/2016 11:37:55,14-23,4,4,5,5,5,1,12-23
12/16/2016 11:42:11,14-24,4,5,5,5,5,1,12-24
12/19/2016 16:40:42,14-1,4,4,3,3,5,2,
12/19/2016 16:41:04,14-2,4,4,4,5,4,3,
12/19/2016 16:41:28,14-3,4,4,3,4,4,3,
12/19/2016 16:41:51,14-4,4,4,3,3,4,2,
12/19/2016 16:42:16,14-5,5,5,3,4,4,2,
12/19/2016 15:40:49,14-6,4,4,4,5,3,1,
12/19/2016 15:44:56,14-7,5,4,4,5,4,1,
12/19/2016 15:48:43,14-8,5,5,3,5,4,1,
12/19/2016 15:52:17,14-9,5,5,5,4,2,1,
12/19/2016 15:55:55,14-10,5,5,3,5,4,1,
12/19/2016 15:59:30,14-11,5,5,4,4,3,1,
12/19/2016 16:03:18,14-12,5,5,2,4,4,1,
12/19/2016 16:07:11,14-13,5,5,3,4,4,1,
12/19/2016 16:10:53,14-14,5,5,4,4,3,1,
12/19/2016 16:14:32,14-15,5,5,3,4,3,1,
12/19/2016 16:18:15,14-16,5,5,3,3,4,1,
12/19/2016 16:21:50,14-17,5,5,4,3,3,1,
12/19/2016 16:25:18,14-18,5,5,3,4,3,1,
12/19/2016 16:28:49,14-19,5,5,3,4,4,1,
12/19/2016 16:32:32,14-20,5,5,3,4,4,1,
12/19/2016 16:36:12,14-21,5,5,5,5,4,1,
12/19/2016 16:39:46,14-22,5,5,3,4,3,1,
12/19/2016 16:46:13,14-23,5,5,3,3,3,1,
12/19/2016 16:49:42,14-24,5,5,2,3,3,1,
,,,,,,,,
,,,,,,,,
,,,,,,,,
,,,,,,,,
,,,,,,,,
12/22/2016 9:34:34,7-1,5,5,5,4,5,1,
12/22/2016 9:38:12,7-2,5,5,5,5,4,1,
12/22/2016 9:41:49,7-3,5,5,5,5,5,1,
12/22/2016 9:45:34,7-4,5,5,5,5,5,1,
12/22/2016 9:49:14,7-5,5,5,5,5,5,1,
12/22/2016 9:52:45,7-6,5,5,5,5,5,1,
12/22/2016 9:56:25,7-7,5,5,5,5,5,1,
12/22/2016 10:00:07,7-8,5,5,5,5,5,1,
12/22/2016 10:03:36,7-9,5,5,5,5,5,1,
12/22/2016 10:07:11,7-10,5,5,5,5,4,1,
12/22/2016 10:10:56,7-11,5,5,5,5,4,1,
12/22/2016 10:14:35,7-12,5,5,5,5,4,1,
12/22/2016 10:18:16,7-13,5,5,5,5,4,1,
12/22/2016 10:24:33,7-14,5,5,5,5,4,1,
12/22/2016 10:28:24,7-15,5,5,5,5,4,1,
12/22/2016 10:32:00,7-16,5,5,5,5,4,1,
12/22/2016 10:35:35,7-17,5,5,5,5,4,1,
12/22/2016 10:39:12,7-18,5,5,5,5,4,1,
12/22/2016 10:42:54,7-19,5,5,5,5,5,1,
12/22/2016 10:46:25,7-20,5,5,5,5,4,1,
12/22/2016 10:49:56,7-21,5,5,5,5,4,1,
12/22/2016 10:53:25,7-22,5,5,5,5,4,1,
12/22/2016 10:57:05,7-23,5,5,5,5,4,1,
12/22/2016 11:00:45,7-24à,5,5,5,5,4,1,
1/5/2017 12:57:47,17-01,4,4,4,5,5,1,
1/5/2017 13:06:15,17-02,5,4,3,5,5,1,
1/5/2017 13:10:02,17-03,5,4,5,5,5,1,
1/5/2017 13:14:25,17-04,4,4,4,5,5,1,
1/5/2017 13:18:12,17-05,5,5,4,4,3,1,
1/5/2017 13:22:00,17-06,4,4,4,5,3,1,
1/5/2017 13:25:42,17-07,4,4,4,4,3,1,
1/5/2017 13:29:25,17-08,4,4,3,4,4,1,
1/5/2017 13:33:35,17-09,4,4,3,4,4,1,
1/5/2017 13:38:28,17-10,4,4,3,4,4,1,
1/5/2017 13:43:13,17-11,5,4,4,4,4,1,
1/5/2017 13:47:08,17-12,4,4,4,4,4,1,
1/5/2017 13:50:39,17-13,4,4,4,3,5,1,
1/5/2017 13:58:12,17-14,4,4,4,4,4,1,
1/5/2017 14:13:11,17-15,4,4,4,3,4,1,
1/5/2017 14:17:04,17-16,4,4,4,4,5,1,
1/5/2017 14:28:02,17-16,4,4,3,4,4,1,
1/5/2017 14:32:59,17-17,4,4,3,3,4,1,
1/5/2017 14:36:43,17-18,4,4,4,4,4,1,
1/5/2017 14:40:30,17-19,4,4,4,4,4,1,
1/5/2017 14:44:08,17-20,4,4,4,4,4,1,
1/5/2017 14:47:42,17-21,4,4,4,4,3,1,
1/5/2017 14:51:17,17-22,4,4,4,4,4,1,
1/5/2017 14:54:53,17-23,3,4,4,4,4,2,
1/5/2017 14:58:36,17-24,4,4,4,4,4,2,
1/16/2017 12:34:01,18-1,5,5,5,4,5,4,
1/16/2017 12:38:10,18-2,5,5,5,4,5,3,
1/16/2017 12:42:05,18-3,5,5,5,4,5,2,
1/16/2017 12:46:05,18-4,5,5,5,4,5,2,
1/16/2017 12:49:44,18-5,5,5,5,4,4,2,
1/16/2017 12:53:40,18-6,5,5,5,4,5,2,
1/16/2017 12:58:39,18-7,5,5,5,3,5,2,
1/16/2017 13:02:35,18-8,5,5,5,4,4,2,
1/16/2017 13:06:18,18-9,5,5,5,4,4,2,
1/16/2017 13:10:43,18-10,5,5,5,5,4,2,
1/16/2017 13:21:48,18-11,5,5,5,5,4,2,
1/16/2017 13:33:33,18-12,5,5,5,4,4,3,
1/16/2017 13:37:20,18-13,5,5,5,4,4,2,
1/16/2017 13:41:30,18-14,5,5,5,5,5,2,
1/16/2017 13:45:27,18-15,5,5,5,5,4,2,
1/16/2017 13:49:18,18-16,5,5,5,5,4,2,
1/16/2017 13:56:59,18-18,5,5,5,4,4,2,
1/16/2017 14:00:56,18-19,5,5,5,5,4,1,
1/16/2017 13:53:15,18-17,5,5,5,5,3,2,
1/16/2017 14:04:39,18-20,5,5,5,5,4,1,
1/16/2017 14:08:33,18-21,5,5,5,5,4,1,
1/16/2017 14:12:12,18-22,5,5,5,5,4,2,
1/16/2017 14:16:01,18-23,5,5,5,5,3,1,
1/16/2017 14:19:37,18-24,5,5,5,5,4,1,
1/17/2017 11:00:11,19-01,4,4,2,4,5,1,
1/17/2017 11:04:00,19-02,4,4,4,5,5,1,
1/17/2017 11:08:00,19-03,4,4,4,5,5,1,
1/17/2017 11:11:58,19-04,3,3,3,5,5,1,
1/17/2017 11:15:49,19-05,3,3,3,5,5,1,
1/17/2017 11:19:32,19-06,3,3,3,4,5,1,
1/17/2017 11:23:39,19-07,3,3,3,3,5,1,
1/17/2017 11:27:42,19-08,3,3,3,3,5,1,
1/17/2017 11:31:26,19-09,2,2,2,2,5,2,
1/17/2017 11:35:25,19-10,2,2,2,2,5,1,
1/17/2017 11:39:34,19-11,2,2,2,2,5,1,
1/17/2017 11:43:18,19-12,2,2,2,2,5,2,
1/17/2017 11:47:02,19-13,2,2,2,2,5,4,
1/17/2017 11:51:28,19-14,2,2,2,4,5,2,
1/17/2017 11:55:52,19-15,2,2,2,3,5,2,
1/17/2017 11:59:34,19-16,2,2,2,2,5,2,
1/17/2017 12:03:30,19-17,2,2,2,3,5,1,
1/17/2017 12:07:18,19-18,2,2,2,2,5,1,
1/17/2017 12:11:14,19-19,2,2,2,3,4,1,
1/17/2017 12:15:01,19-20,2,2,2,2,4,2,
1/17/2017 12:18:41,19-21,2,2,2,2,4,2,
1/17/2017 12:22:23,19-22,2,2,2,2,5,2,
1/17/2017 12:26:10,19-23,2,2,2,2,4,2,
1/17/2017 12:29:50,19-24,2,2,2,3,5,2,
1/25/2017 20:05:35,21-01,4,4,4,3,5,1,
1/25/2017 20:09:19,21-02,5,4,4,4,5,1,
1/25/2017 20:12:59,21-03,4,4,4,3,5,1,
1/25/2017 20:16:43,21-04,3,4,3,4,5,1,
1/25/2017 20:20:36,21-05,5,4,4,4,5,1,
1/25/2017 20:24:21,21-06,4,4,5,5,5,1,
1/25/2017 20:27:59,21-07,4,4,3,3,5,2,
1/25/2017 20:31:34,21-08,5,4,3,5,5,2,
1/25/2017 20:35:06,21-09,3,3,3,4,5,1,
1/25/2017 20:38:50,21-10,5,5,5,5,5,2,
1/25/2017 20:42:35,21-11,3,4,4,4,5,2,
1/25/2017 20:46:20,21-12,3,3,3,3,5,3,
1/25/2017 20:50:07,21-13,4,4,4,4,5,1,
1/25/2017 20:54:57,21-14,5,4,4,3,5,2,
1/25/2017 20:58:36,21-15,3,2,2,3,2,2,
1/25/2017 21:02:08,21-16,3,3,3,3,5,3,
1/25/2017 21:05:55,21-17,3,2,3,3,5,2,
1/25/2017 21:09:58,21-18,3,4,4,4,5,2,
1/25/2017 21:13:54,21-19,3,4,3,3,5,2,
1/25/2017 21:17:33,21-20,3,3,4,4,5,3,
1/25/2017 21:21:16,21-21,3,2,2,2,5,3,
1/25/2017 21:25:14,21-22,4,3,3,2,3,2,
1/25/2017 21:29:14,21-23,1,2,2,1,5,3,
1/25/2017 21:33:25,21-24,4,4,3,5,4,2,
1/26/2017 12:29:21,22-01,5,5,5,5,5,1,
1/26/2017 12:33:20,22-02,5,5,5,5,5,1,
1/26/2017 12:36:59,22-03,5,5,5,5,4,1,
1/26/2017 12:40:40,22-04,5,5,5,4,4,1,
1/26/2017 12:44:17,22-05,5,5,5,4,4,1,
1/26/2017 12:47:51,22-06,4,4,5,5,4,2,
1/26/2017 12:51:43,22-07,5,5,4,5,4,2,
1/26/2017 12:55:09,22-08,5,4,5,4,4,3,
1/26/2017 12:58:40,22-09,5,5,5,4,3,3,
1/26/2017 13:02:29,22-10,5,4,5,4,3,2,
1/26/2017 13:06:45,22-11,4,4,5,5,3,3,
1/26/2017 13:10:15,22-12,4,4,4,5,3,3,
1/26/2017 13:13:44,22-13,4,5,4,4,3,3,
1/26/2017 13:17:18,22-14,5,4,4,4,3,3,
1/26/2017 13:20:51,22-15,4,4,4,3,3,3,
1/26/2017 13:24:23,22-16,4,4,4,4,3,3,
1/26/2017 13:27:56,22-17,4,4,4,4,3,4,
1/26/2017 13:31:25,22-18,4,4,5,5,3,4,
1/26/2017 13:35:00,22-19,4,4,4,3,3,3,
1/26/2017 13:38:38,22-20,4,3,4,3,3,4,
1/26/2017 13:42:07,22-21,4,4,4,5,3,3,
1/26/2017 13:45:38,22-22,4,4,4,3,3,4,
1/26/2017 13:49:08,22-23,4,5,4,5,3,3,
1/26/2017 13:52:39,22-24,4,3,3,4,3,4,
1/30/2017 9:12:26,20-01,5,5,5,3,3,2,
1/30/2017 9:16:06,20-02,5,5,5,3,3,2,
1/30/2017 9:19:50,20-03,5,5,5,3,3,2,
1/30/2017 9:23:37,20-04,5,5,5,3,3,2,
1/30/2017 9:27:51,20-05,5,5,5,3,3,2,
1/30/2017 9:31:57,20-06,5,5,5,3,3,2,
1/30/2017 9:36:00,20-07,5,5,5,3,3,2,
1/30/2017 9:39:42,20-08,5,5,5,3,3,2,
1/30/2017 9:43:27,20-09,5,5,5,3,3,2,
1/30/2017 9:47:18,20-10,5,5,5,3,3,2,
1/30/2017 9:51:01,20-11,5,5,5,3,3,2,
1/30/2017 9:54:52,20-12,5,5,5,3,3,2,
1/30/2017 9:58:43,20-13,5,5,5,3,3,2,
1/30/2017 10:03:02,20-14,5,5,5,3,3,2,
1/30/2017 10:06:54,20-15,5,5,5,3,3,2,
1/30/2017 10:11:09,20-16,5,5,5,3,3,2,
1/30/2017 10:14:44,20-17,5,5,5,3,3,2,
1/30/2017 10:18:28,20-18,5,5,5,3,3,2,
1/30/2017 10:22:15,20-19,5,5,5,3,3,2,
1/30/2017 10:26:06,20-20,5,5,5,3,2,3,
1/30/2017 10:30:01,20-21,5,5,5,3,3,3,
1/30/2017 10:34:06,20-22,5,5,5,3,3,3,
1/30/2017 10:37:54,20-23,5,5,5,3,3,3,
1/30/2017 10:41:36,20-24,5,5,5,3,3,3,
2/6/2017 11:47:13,26-01,4,4,4,3,2,2,
2/6/2017 11:50:48,26-02,4,4,4,3,2,2,
2/6/2017 11:54:23,26-03,4,4,4,3,2,2,
2/6/2017 11:57:47,26-04,4,4,4,3,2,2,
2/6/2017 12:01:31,26-05,2,2,2,2,2,2,
2/6/2017 12:05:18,26-06,2,2,2,2,2,2,
2/6/2017 12:08:54,26-07,1,2,1,1,1,1,
2/6/2017 12:12:38,26-08,1,1,1,1,1,5,
2/6/2017 12:16:45,26-09,1,1,1,2,1,4,
2/6/2017 12:20:46,26-10,1,1,1,2,1,3,
2/6/2017 12:24:37,26-11,1,1,1,1,1,3,
2/6/2017 12:28:47,26-12,1,2,1,1,1,4,
2/6/2017 12:32:35,26-13,2,2,2,1,1,3,
2/6/2017 12:36:37,26-14,2,2,2,1,1,3,
2/6/2017 12:40:37,26-15,2,2,2,2,1,4,
2/6/2017 12:44:37,26-16,2,2,2,2,2,3,
2/6/2017 12:48:33,26-17,1,1,1,1,1,4,
2/6/2017 12:53:01,26-18,1,2,1,2,1,4,
2/6/2017 12:58:26,26-19,2,2,2,2,1,3,
2/6/2017 13:02:04,26-20,1,1,2,1,2,3,
2/6/2017 13:05:58,26-21,1,1,1,1,1,4,
2/6/2017 13:09:56,26-22,1,1,1,1,1,4,
2/6/2017 13:13:28,26-23,1,1,1,1,1,4,
2/6/2017 13:17:22,26-24,1,1,1,1,2,2,
2/8/2017 17:50:48,29-01,4,3,3,3,1,1,
2/8/2017 17:51:34,29-02,3,3,3,3,1,1,
2/8/2017 17:55:56,29-03,3,3,3,3,1,1,
2/8/2017 18:01:49,29-04,3,3,3,3,1,1,
2/8/2017 18:05:53,29-05,3,3,3,3,1,1,
2/8/2017 18:10:01,29-06,3,3,3,3,1,1,
2/8/2017 18:13:44,29-07,3,3,3,3,1,1,
2/8/2017 18:19:18,29-08,3,3,3,3,1,1,
2/8/2017 18:23:39,29-09,3,3,3,3,1,1,
2/8/2017 18:27:11,29-10,3,3,3,3,1,1,
2/8/2017 18:32:38,29-11,3,3,3,3,1,1,
2/8/2017 18:36:22,29-12,3,3,3,3,1,1,
2/8/2017 18:39:51,29-13,3,3,3,3,1,1,
2/8/2017 18:43:26,29-14,4,4,4,4,1,1,
2/8/2017 18:46:51,29-15,4,4,4,4,1,1,
2/8/2017 18:50:28,29-16,4,4,4,4,1,1,
2/8/2017 18:54:00,29-17,5,5,5,5,1,1,
2/8/2017 18:57:31,29-18,5,5,5,5,1,1,
2/8/2017 19:01:01,29-19,5,5,5,5,1,1,
2/8/2017 19:04:32,29-20,5,5,5,5,1,1,
2/8/2017 19:07:59,29-21,4,4,3,3,1,1,
2/8/2017 19:11:29,29-22,4,4,4,4,1,1,
2/8/2017 19:14:57,29-23,4,4,4,4,1,1,
2/8/2017 19:18:32,29-24,4,4,4,4,1,1,
2/15/2017 18:54:54,23-01,4,5,4,4,4,1,
2/15/2017 18:58:39,23-02,4,5,5,4,4,1,
2/15/2017 19:02:37,23-03,5,5,5,5,4,1,
2/15/2017 19:06:26,23-04,4,5,4,4,5,1,
2/15/2017 19:10:11,23-05,4,5,5,5,4,1,
2/15/2017 19:14:09,23-06,5,5,5,5,4,1,
2/15/2017 19:18:03,23-07,5,5,5,4,4,1,
2/15/2017 19:21:59,23-08,4,5,4,4,4,1,
2/15/2017 19:25:47,23-09,4,5,5,5,5,1,
2/15/2017 19:29:28,23-10,5,5,5,5,4,1,
2/15/2017 19:33:14,23-11,5,5,5,4,5,1,
2/15/2017 19:36:56,23-12,5,5,5,5,4,1,
2/15/2017 19:40:40,23-13,5,5,5,5,4,1,
2/15/2017 19:44:18,23-14,5,5,5,4,4,1,
2/15/2017 19:47:58,23-15,4,4,4,4,4,1,
2/15/2017 19:51:37,23-16,5,5,5,4,4,1,
2/15/2017 19:55:19,23-17,5,5,5,5,4,1,
2/15/2017 19:59:11,23-18,4,4,5,4,5,1,
2/15/2017 20:03:14,23-19,5,5,5,4,4,1,
2/15/2017 20:07:06,23-20,5,5,5,4,4,1,
2/15/2017 20:10:44,23-21,4,5,5,4,5,1,
2/15/2017 20:14:35,23-22,5,5,5,5,5,1,
2/15/2017 20:18:19,23-23,5,5,5,5,5,1,
2/15/2017 20:22:00,23-24,5,5,5,5,5,1,
3/13/2017 14:43:08,33-01,5,5,5,5,3,1,
3/13/2017 14:46:53,33-02,5,5,5,5,2,1,
3/13/2017 14:50:31,33-03,4,5,5,5,2,1,
3/13/2017 14:53:59,33-04,5,5,5,5,2,1,
3/13/2017 14:57:29,33-05,5,5,5,5,2,1,
3/13/2017 15:00:56,33-06,5,5,5,5,1,1,
3/13/2017 15:04:18,33-07,5,5,5,5,1,1,
3/13/2017 15:07:43,33-08,5,5,5,5,1,1,
3/13/2017 15:11:08,33-09,5,5,5,5,1,1,
3/13/2017 15:14:36,33-10,5,5,5,5,2,1,
3/13/2017 15:17:57,33-11,5,5,5,5,1,1,
3/13/2017 15:21:22,33-12,5,5,5,5,1,1,
3/13/2017 15:24:47,33-13,5,5,5,5,1,1,
3/13/2017 15:28:15,33-14,5,5,5,5,2,1,
3/13/2017 15:31:43,33-15,5,5,5,5,2,1,
3/13/2017 15:35:13,33-16,5,5,5,5,1,1,
3/13/2017 15:38:41,33-17,5,5,5,5,1,1,
3/13/2017 15:42:06,33-18,5,5,5,5,2,1,
3/13/2017 15:45:27,33-19,5,5,5,5,1,1,
3/13/2017 15:48:48,33-20,5,5,5,5,1,1,
3/13/2017 15:52:09,33-21,5,5,5,5,1,1,
3/13/2017 15:55:31,33-22,5,5,5,5,1,1,
3/13/2017 15:58:50,33-23,5,5,5,5,1,1,
3/13/2017 16:02:13,33-24,5,5,5,5,1,1,
3/14/2017 9:19:59,38-01,4,3,3,3,4,1,
3/14/2017 9:23:46,38-02,4,3,4,3,4,1,
3/14/2017 9:27:32,38-03,4,3,4,3,4,1,
3/14/2017 9:31:30,38-04,3,4,4,3,4,1,
3/14/2017 9:35:17,38-05,3,4,3,4,4,1,
3/14/2017 9:39:19,38-06,3,3,3,3,3,1,
3/14/2017 9:43:23,38-07,4,4,4,3,3,1,
3/14/2017 9:47:20,38-08,3,4,3,3,4,1,
3/14/2017 9:51:22,38-09,4,4,3,4,3,1,
3/14/2017 9:55:02,38-10,3,4,3,2,4,1,
3/14/2017 9:58:48,38-11,3,3,3,2,4,1,
3/14/2017 10:02:43,38-12,4,4,3,4,4,1,
3/14/2017 10:06:22,38-13,3,3,3,4,4,2,
3/14/2017 10:10:10,38-14,4,4,3,3,4,2,
3/14/2017 10:13:52,38-15,4,4,5,4,3,1,
3/14/2017 10:17:31,38-16,4,4,4,4,3,1,
3/14/2017 10:21:13,38-17,3,3,3,3,4,2,
3/14/2017 10:24:56,38-18,3,3,3,3,4,2,
3/14/2017 10:28:45,38-19,3,3,2,3,4,2,
3/14/2017 10:32:31,38-20,2,3,3,3,4,2,
3/14/2017 10:36:11,38-21,3,3,2,4,4,1,
3/14/2017 10:39:54,38-22,2,2,3,4,4,2,
3/14/2017 10:43:42,38-23,2,4,3,4,5,1,
3/14/2017 10:47:55,38-24,3,3,3,4,5,1,
3/14/2017 12:11:47,46-01,4,4,4,4,3,2,
3/14/2017 12:15:22,46-02,4,5,4,4,3,2,
3/14/2017 12:19:29,46-03,4,4,5,4,3,3,
3/14/2017 12:23:00,46-04,4,4,5,4,3,2,
3/14/2017 12:26:29,46-05,4,4,5,4,3,2,
3/14/2017 12:30:04,46-06,4,4,4,3,3,2,
3/14/2017 12:33:34,46-07,4,4,4,3,3,3,
3/14/2017 12:37:26,46-08,4,4,4,3,3,3,
3/14/2017 12:41:01,46-09,4,4,5,4,3,2,
3/14/2017 12:44:35,46-10,4,4,4,3,3,3,
3/14/2017 12:48:05,46-11,4,4,4,3,3,3,
3/14/2017 12:51:39,46-12,4,4,4,3,3,3,
3/14/2017 12:55:07,46-13,4,4,4,3,3,2,
3/14/2017 12:58:35,46-14,4,4,5,3,3,2,
3/14/2017 13:02:13,46-15,4,4,5,4,3,2,
3/14/2017 13:05:43,46-16,4,4,4,3,3,2,
3/14/2017 13:09:14,46-17,4,4,4,4,3,1,
3/14/2017 13:12:52,46-18,4,4,4,3,3,2,
3/14/2017 13:16:29,46-19,4,4,4,3,3,2,
3/14/2017 13:20:00,46-20,4,4,4,3,4,3,
3/14/2017 13:23:49,46-21,4,4,4,3,3,2,
3/14/2017 13:27:18,46-22,4,4,4,3,3,2,
3/14/2017 13:30:50,46-23,4,4,4,3,3,2,
3/14/2017 13:34:27,46-24,4,4,5,4,3,2,
3/16/2017 9:17:12,43-1,4,4,4,4,5,2,
3/16/2017 9:21:03,43-2,4,4,4,4,5,2,
3/16/2017 9:24:49,43-3,4,4,4,4,5,1,
3/16/2017 9:28:30,43-4,4,4,4,5,4,1,
3/16/2017 9:32:21,43-5,4,4,4,4,5,1,
3/16/2017 9:36:15,43-6,4,4,5,4,4,1,
3/16/2017 9:40:03,43-7,4,5,4,4,4,1,
3/16/2017 9:43:44,43-8,4,4,5,5,4,1,
3/16/2017 9:47:28,43-9,4,5,5,4,4,1,
3/16/2017 9:51:12,43-10,4,4,4,4,4,2,
3/16/2017 9:54:50,43-11,4,5,4,5,4,1,
3/16/2017 9:58:46,43-13,4,4,5,5,4,2,
3/16/2017 10:02:45,43-13,4,5,4,5,4,1,
3/16/2017 10:06:26,43-14,4,5,5,5,4,2,
3/16/2017 10:10:13,43-15,4,5,4,5,4,1,
3/16/2017 10:14:08,43-16,4,5,4,4,4,2,
3/16/2017 10:17:53,43-17,5,5,4,4,4,1,
3/16/2017 10:21:27,43-18,4,5,5,4,4,2,
3/16/2017 10:25:10,43-19,4,5,4,4,3,1,
3/16/2017 10:28:52,43-20,5,5,4,4,3,1,
3/16/2017 10:32:31,43-21,4,5,5,5,3,1,
3/16/2017 10:36:09,43-22,4,5,4,4,3,2,
3/16/2017 10:40:03,43-23,4,5,5,4,3,2,
3/16/2017 10:43:48,43-24,4,5,5,4,3,2,
3/20/2017 12:58:04,39-01,3,4,3,2,3,3,
3/20/2017 13:01:59,39-02,3,4,3,3,4,2,
3/20/2017 13:05:34,39-03,3,4,4,4,4,2,
3/20/2017 13:09:13,39-04,4,3,3,4,3,2,
3/20/2017 13:12:42,39-05,4,4,4,4,4,2,
3/20/2017 13:16:17,39-06,4,4,3,3,4,2,
3/20/2017 13:20:08,39-07,4,3,4,4,4,2,
3/20/2017 13:23:44,39-08,4,4,3,4,5,2,
3/20/2017 13:27:18,39-09,4,4,4,4,3,2,
3/20/2017 13:30:54,39-10,3,4,4,4,3,2,
3/20/2017 13:34:35,39-11,4,5,4,4,3,3,
3/20/2017 13:38:08,39-12,4,4,5,4,3,2,
3/20/2017 13:41:40,39-13,3,3,4,4,3,3,
3/20/2017 13:45:17,39-14,4,4,3,4,4,2,
3/20/2017 13:48:50,39-15,3,4,3,4,4,2,
3/20/2017 13:52:19,39-16,4,4,4,4,4,2,
3/20/2017 13:55:54,39-17,4,5,3,4,3,2,
3/20/2017 13:59:27,39-18,3,2,2,3,3,4,
3/20/2017 14:03:05,39-19,3,3,3,3,4,3,
3/20/2017 14:06:43,39-20,4,4,4,4,3,3,
3/20/2017 14:15:53,39-22,4,3,3,2,3,3,
3/20/2017 14:19:26,39-23,2,3,3,3,2,4,
3/20/2017 14:22:56,39-24,4,4,4,5,4,3,
3/20/2017 15:22:53,27-01,4,4,4,4,5,1,
3/20/2017 15:26:38,27-02,4,3,4,3,5,1,
3/20/2017 15:30:08,27-03,4,3,3,3,5,1,
3/20/2017 15:33:44,27-04,4,4,4,4,5,1,
3/20/2017 15:37:28,27-05,4,4,4,4,5,1,
3/20/2017 15:41:05,27-06,4,4,4,4,5,1,
3/20/2017 15:44:29,27-07,4,4,4,4,5,1,
3/20/2017 15:47:57,27-08,4,4,4,4,4,1,
3/20/2017 15:51:27,27-09,4,4,4,4,4,1,
3/20/2017 15:55:05,27-10,4,4,4,4,4,1,
3/20/2017 15:58:44,27-11,4,4,4,4,4,1,
3/20/2017 16:02:30,27-12,3,3,3,2,4,1,
3/20/2017 16:06:01,27-13,4,4,4,4,4,1,
3/20/2017 16:09:38,27-14,4,4,4,4,4,1,
3/20/2017 16:13:15,27-15,4,4,4,4,4,1,
3/20/2017 16:16:51,27-16,4,4,4,4,4,1,
3/20/2017 16:20:31,27-17,4,4,4,4,4,1,
3/20/2017 16:24:02,27-18,4,4,4,4,4,1,
3/20/2017 16:27:36,27-19,4,4,4,4,4,1,
3/20/2017 16:31:04,27-20,4,4,4,4,5,1,
3/20/2017 16:34:53,27-21,4,4,4,4,4,1,
3/20/2017 16:38:29,27-22,3,3,3,2,3,1,
3/20/2017 16:42:07,27-23,4,4,4,4,4,1,
3/20/2017 16:45:42,27-24,4,4,4,4,4,1,
3/21/2017 9:18:22,31-01,5,5,5,5,3,1,
3/21/2017 9:22:09,34-02,5,5,5,5,4,1,
3/21/2017 9:25:53,34-03,5,5,5,5,4,1,
3/21/2017 9:29:38,34-04,5,5,5,5,4,1,
3/21/2017 9:33:27,34-05,4,5,4,5,4,1,
3/21/2017 9:37:17,34-06,5,5,5,5,4,1,
3/21/2017 9:40:56,34-07,4,4,4,4,4,2,
3/21/2017 9:44:41,34-08,4,4,4,4,5,2,
3/21/2017 9:48:25,34-09,5,5,5,4,5,2,
3/21/2017 9:52:20,34-10,5,4,5,5,5,2,
3/21/2017 9:56:09,34-11,4,4,4,5,4,2,
3/21/2017 9:59:57,34-12,4,4,4,5,5,2,
3/21/2017 10:05:10,34-13,5,5,5,5,4,1,
3/21/2017 10:08:52,34-14,5,5,5,5,4,1,
3/21/2017 10:12:29,34-15,5,5,5,5,4,1,
3/21/2017 10:16:14,34-16,5,5,5,5,5,1,
3/21/2017 10:19:48,34-17,5,5,5,5,4,1,
3/21/2017 10:23:24,34-18,5,5,5,5,5,1,
3/21/2017 10:26:59,34-19,5,5,5,5,5,1,
3/21/2017 10:30:38,34-20,5,5,5,5,4,1,
3/21/2017 10:34:15,34-21,5,5,5,5,4,1,
3/21/2017 10:37:51,34-22,5,5,5,5,4,1,
3/21/2017 10:41:29,34-23,5,5,5,5,4,1,
3/21/2017 10:45:06,34-24,5,5,5,5,3,1,
3/23/2017 12:51:05,44-1,5,5,5,5,3,2,
3/23/2017 12:55:13,44-2,5,5,5,5,4,2,
3/23/2017 12:58:57,44-3,5,5,5,5,4,2,
3/23/2017 13:02:58,44-4,5,5,5,5,4,2,
3/23/2017 13:06:40,44-5,5,5,5,5,4,2,
3/23/2017 13:10:28,44-6,5,5,5,5,4,2,
3/23/2017 13:14:44,44-7,5,5,5,5,4,2,
3/23/2017 13:19:14,44-8,5,5,5,5,4,2,
3/23/2017 13:24:41,44-9,5,5,5,5,4,2,
3/23/2017 13:32:01,44-10,5,5,5,5,4,2,
3/23/2017 13:36:26,44-11,5,5,5,5,4,2,
3/23/2017 13:42:07,44-12,5,5,5,5,4,2,
3/24/2017 11:00:30,36-1,4,4,4,3,2,1,
3/24/2017 11:04:21,36-2,4,5,5,3,2,1,
3/24/2017 11:08:17,36-3,4,4,4,2,1,2,
3/24/2017 11:12:15,36-4,4,4,4,3,2,3,
3/24/2017 11:16:07,36-5,4,4,3,3,3,3,
3/24/2017 11:20:03,36-6,3,4,3,2,2,4,
3/24/2017 11:23:45,36-7,3,3,2,2,2,4,
3/24/2017 11:27:42,36-8,3,3,4,3,3,2,
3/24/2017 11:31:34,36-9,4,4,4,3,2,2,
3/24/2017 11:36:09,36-10,4,4,4,3,2,2,
3/24/2017 11:40:02,36-11,3,4,5,4,3,2,
3/24/2017 11:43:55,36-12,3,3,4,2,2,3,
3/24/2017 11:48:22,36-13,3,2,3,2,3,4,
3/24/2017 11:52:17,36-14,4,4,4,3,3,2,
3/24/2017 11:56:07,36-15,2,3,3,2,2,4,
3/24/2017 12:00:06,36-16,4,4,3,4,2,2,
3/24/2017 12:04:04,36-17,3,3,2,2,3,1,
3/24/2017 12:08:12,36-18,3,3,2,2,2,3,
3/24/2017 12:21:21,36-20,3,3,4,2,3,3,
3/24/2017 12:25:09,36-21,4,4,4,3,3,1,
3/24/2017 12:28:55,36-22,4,3,3,2,1,2,
3/24/2017 12:32:35,36-23,4,4,5,4,2,1,
3/24/2017 12:36:19,36-24,4,5,4,4,2,1,
3/27/2017 9:45:38,28-1,5,4,4,4,5,1,
3/27/2017 9:49:28,28-2,5,5,4,5,4,1,
3/27/2017 9:53:12,28-3,5,5,5,4,5,1,
3/27/2017 9:57:00,28-4,5,5,4,5,4,1,
3/27/2017 10:00:45,28-5,5,5,4,5,5,1,
3/27/2017 10:04:27,28-6,5,5,4,4,4,1,
3/27/2017 10:08:38,28-7,5,5,3,4,4,1,
3/27/2017 10:12:17,28-8,5,4,4,5,4,1,
3/27/2017 10:16:16,28-9,5,4,4,5,4,1,
3/27/2017 10:20:02,28-10,5,4,4,5,4,1,
3/27/2017 10:23:49,28-11,5,5,4,5,4,1,
3/27/2017 10:27:32,28-12,5,4,4,4,4,1,
3/27/2017 10:31:11,28-13,5,5,4,3,4,2,
3/27/2017 10:35:09,28-14,5,4,4,4,3,2,
3/27/2017 10:38:53,28-15,5,4,4,3,3,2,
3/27/2017 10:42:39,28-16,5,4,4,3,3,2,
3/27/2017 10:46:28,28-17,5,4,4,3,3,2,
3/27/2017 10:50:13,28-18,4,4,3,3,3,2,
3/27/2017 10:53:59,28-19,4,4,3,3,3,2,
3/27/2017 10:57:49,28-20,4,4,3,2,2,3,
3/27/2017 11:01:37,28-21,3,4,3,3,3,3,
3/27/2017 11:05:18,28-22,3,4,3,3,3,2,
3/27/2017 11:09:04,28-23,3,3,3,3,2,3,
3/27/2017 11:12:47,28-24,3,3,3,3,3,3,
3/27/2017 14:42:45,35-01,3,3,3,4,5,4,
3/27/2017 14:46:26,35-02,4,4,4,4,5,1,
3/27/2017 14:49:59,35-03,4,4,4,5,5,2,
3/27/2017 14:53:35,35-04,3,3,3,3,5,2,
3/27/2017 14:57:01,35-05,3,3,3,4,5,3,
3/27/2017 15:01:05,35-06,2,2,2,2,5,3,
3/27/2017 15:04:32,35-07,2,2,2,4,5,3,
3/27/2017 15:07:57,35-08,3,3,3,2,5,2,
3/27/2017 15:11:30,35-09,3,3,3,4,5,3,
3/27/2017 15:15:13,35-10,1,1,1,1,5,4,
3/27/2017 15:18:37,35-11,3,3,3,5,5,3,
3/27/2017 15:22:08,35-12,4,4,4,5,5,3,
3/27/2017 15:25:36,35-13,4,4,4,5,5,1,
3/27/2017 15:29:28,35-14,3,3,2,4,4,2,
3/27/2017 15:32:54,35-15,4,3,4,4,4,2,
3/27/2017 15:36:17,35-16,1,1,1,2,5,5,
3/27/2017 15:39:55,35-17,3,3,4,4,5,3,
3/27/2017 15:43:28,35-18,3,4,4,3,5,3,
3/27/2017 15:46:55,35-19,4,4,3,4,3,3,
3/27/2017 15:50:21,35-20,2,3,2,2,4,3,
3/27/2017 15:53:50,35-21,3,3,4,4,3,3,
3/27/2017 15:57:23,35-22,4,4,4,5,3,3,
3/27/2017 16:00:46,35-23,4,4,5,4,3,2,
3/27/2017 16:04:09,35-24,4,4,4,5,3,3,
3/28/2017 19:24:03,45-01,4,4,4,5,5,1,
3/28/2017 19:28:21,45-02,4,3,4,5,5,1,
3/28/2017 19:32:07,45-03,3,3,3,5,5,1,
3/28/2017 19:36:38,45-04,4,4,4,5,5,1,
3/28/2017 19:40:24,45-05,4,4,4,5,5,1,
3/28/2017 19:44:21,45-06,4,3,3,5,5,1,
3/28/2017 19:48:02,45-07,4,4,4,5,5,1,
3/28/2017 19:51:40,45-08,4,4,4,5,4,1,
3/28/2017 19:55:20,45-09,4,4,4,5,5,1,
3/28/2017 19:59:12,45-10,4,4,4,4,5,1,
3/28/2017 20:02:51,45-11,4,4,4,4,5,1,
3/28/2017 20:06:41,45-12,4,4,4,4,5,1,
3/28/2017 20:10:18,45-13,4,4,4,4,5,1,
3/28/2017 20:14:02,45-14,4,3,3,4,5,1,
3/28/2017 20:17:45,45-15,4,3,3,3,5,1,
3/28/2017 20:21:25,45-16,3,3,3,4,5,1,
3/28/2017 20:25:17,45-17,4,4,4,5,5,1,
3/28/2017 20:28:49,45-18,4,4,4,5,5,1,
3/28/2017 20:32:30,45-19,4,4,4,5,4,1,
3/28/2017 20:36:08,45-20,4,4,4,5,5,1,
3/28/2017 20:39:43,45-21,4,4,4,5,5,1,
3/28/2017 20:43:15,45-22,4,4,4,5,5,1,
3/28/2017 20:47:01,45-23,4,4,5,5,5,1,
3/28/2017 20:50:36,45-24,4,4,4,5,5,1,
3/29/2017 14:16:29,40-01,5,5,5,4,3,1,
3/29/2017 14:20:05,40-02,5,5,5,4,3,1,
3/29/2017 14:23:34,40-03,5,4,4,3,3,1,
3/29/2017 14:27:20,40-04,5,5,4,4,3,1,
3/29/2017 14:30:47,40-05,4,4,4,3,3,1,
3/29/2017 14:34:22,40-06,5,5,5,5,3,1,
3/29/2017 14:37:48,40-07,5,5,5,5,3,1,
3/29/2017 14:41:15,40-08,5,5,5,4,3,1,
3/29/2017 14:45:02,40-09,5,5,5,5,3,1,
3/29/2017 14:48:31,40-10,5,5,5,4,3,1,
3/29/2017 14:51:56,40-11,5,5,4,4,3,1,
3/29/2017 14:55:25,40-12,5,5,5,4,3,1,
3/29/2017 14:59:08,40-13,5,5,5,5,3,1,
3/29/2017 15:02:34,40-14,5,5,5,5,3,1,
3/29/2017 15:05:59,40-15,5,5,5,5,3,1,
3/29/2017 15:09:20,40-16,5,5,5,4,3,1,
3/29/2017 15:12:47,40-17,5,5,4,4,3,1,
3/29/2017 15:16:06,40-18,5,5,4,4,3,1,
3/29/2017 15:19:43,40-19,5,4,4,4,3,1,
3/29/2017 15:23:02,40-20,5,4,4,4,3,1,
3/29/2017 15:26:25,40-21,5,5,5,5,3,1,
3/29/2017 15:29:52,40-22,5,4,4,4,3,1,
3/29/2017 15:33:16,40-23,5,5,5,5,3,1,
3/29/2017 15:36:39,40-24,5,5,5,5,3,1,
6/13/2017 10:38:38,8888-1-1,1,1,1,1,1,1,
6/13/2017 10:43:41,8888-1-2,1,1,1,1,1,1,
6/13/2017 10:48:25,88888-1-3,1,1,1,1,1,1,
6/13/2017 11:05:40,88888-3-1,1,1,1,1,1,1,
6/28/2017 10:29:01,999-1-1,5,5,5,5,5,5,
6/28/2017 10:40:10,999-1-2,5,5,5,5,5,5,
6/28/2017 10:43:59,999-1-3,5,5,5,5,5,5,
6/28/2017 10:47:40,999-1-4,5,5,5,5,5,5,
6/28/2017 10:51:31,999-1-5,5,5,5,5,5,5,
6/28/2017 10:56:59,999-2-1,5,5,5,5,5,5,
6/28/2017 11:00:38,999-2-2,5,5,5,5,5,5,
6/28/2017 11:04:04,999-2-3,5,5,5,5,5,5,
6/28/2017 11:07:30,999-2-4,5,5,5,5,5,5,
6/28/2017 11:11:07,999-2-5,5,5,5,5,5,5,
6/28/2017 11:16:18,999-3-1,5,5,5,5,5,5,
6/28/2017 11:28:08,999-3-2,5,5,5,5,5,5,
7/25/2017 10:27:11,1-1-1,3,4,3,1,1,5,
7/25/2017 10:31:06,1-1-2,4,4,3,2,1,5,
7/25/2017 10:34:49,1-1-3,5,5,4,2,1,5,
7/25/2017 10:39:21,1-1-4,5,5,5,3,1,5,
7/25/2017 10:43:00,1-1-5,5,5,5,4,1,5,
7/25/2017 10:48:37,1-2-1,5,5,5,3,1,3,
7/25/2017 10:52:08,1-2-2,5,5,5,3,2,3,
7/25/2017 10:55:51,1-2-3,5,5,5,3,2,4,
7/25/2017 10:59:22,1-2-4,5,5,5,3,2,4,
7/25/2017 11:02:59,1-2-5,5,5,5,3,2,4,
7/25/2017 11:09:21,1-3-1,5,5,5,3,3,3,
7/25/2017 11:13:30,1-3-2,5,5,5,3,3,3,
7/25/2017 11:16:55,1-3-3,5,5,5,3,3,3,
7/25/2017 11:20:25,1-3-4,5,5,5,4,3,3,
7/25/2017 11:23:50,1-3-5,5,5,5,4,3,3,
7/25/2017 11:28:38,1-4-1,5,5,5,4,4,1,
7/25/2017 11:32:05,1-4-2,5,5,5,5,4,1,
7/25/2017 11:35:35,1-4-3,5,5,5,5,4,1,
7/25/2017 11:39:11,1-4-4,5,5,5,5,4,1,
7/25/2017 11:42:36,1-4-5,5,5,5,5,4,1,
7/25/2017 11:46:28,1-4-6,5,5,5,4,4,1,
7/25/2017 11:49:53,1-4-7,5,5,5,4,4,1,
7/25/2017 11:53:19,1-4-8,5,5,5,5,4,1,
7/25/2017 11:57:08,1-4-9,5,5,5,5,4,1,
7/26/2017 10:57:03,01-1-1,5,5,4,4,3,4,
7/26/2017 11:00:48,02-1-2,3,3,2,2,2,4,
7/26/2017 11:04:24,02-1-3,3,3,2,2,2,4,
7/26/2017 11:08:06,02-1-4,2,3,1,2,2,4,
7/26/2017 11:11:34,02-1-5,3,3,2,2,2,4,
7/26/2017 11:16:06,02-2-1,4,4,4,3,3,1,
7/26/2017 11:22:18,02-2-2,4,4,4,3,3,2,
7/26/2017 11:26:19,02-2-3,4,4,3,3,3,2,
7/26/2017 11:29:58,02-2-4,4,4,4,3,3,2,
7/26/2017 11:33:29,02-2-5,4,4,3,3,3,2,
7/26/2017 11:38:32,02-3-1,4,4,4,4,3,1,
7/26/2017 11:42:06,02-3-2,4,4,4,4,4,1,
7/26/2017 11:45:35,02-3-3,4,4,3,3,3,1,
7/26/2017 11:49:07,02-3-4,4,4,4,4,3,2,
7/26/2017 11:52:47,02-3-5,5,5,4,3,3,2,
7/26/2017 11:57:07,02-4-1,5,5,4,4,4,1,
7/26/2017 12:00:38,02-4-2,5,4,4,4,4,1,
7/26/2017 12:04:15,02-4-3,5,5,4,4,4,1,
7/26/2017 12:07:53,02-4-4,5,5,4,4,4,1,
7/26/2017 12:11:28,02-4-5,4,4,4,3,4,2,
7/26/2017 12:15:05,02-4-6,5,4,3,4,3,3,
7/26/2017 12:18:35,02-4-7,5,5,4,4,3,2,
7/26/2017 12:22:14,02-4-8,4,4,4,4,3,3,
7/26/2017 12:25:45,02-4-9,4,4,4,3,3,2,
7/28/2017 10:25:00,03-1-1,5,4,4,3,3,2,
7/28/2017 10:29:07,03-1-2,5,5,4,4,3,2,
7/28/2017 10:33:28,03-1-3,5,5,5,5,2,2,
7/28/2017 10:37:09,03-1-4,5,5,5,5,2,2,
7/28/2017 10:40:53,03-1-5,5,5,5,5,1,1,
7/28/2017 10:49:14,03-2-1,3,3,4,4,3,2,
7/28/2017 10:53:33,03-2-2,5,5,5,5,4,2,
7/28/2017 10:58:40,03-2-3,5,5,5,5,4,2,
7/28/2017 11:02:39,03-2-4,5,5,5,5,4,2,
7/28/2017 11:06:47,03-2-5,5,5,5,5,2,1,
7/28/2017 11:16:34,03-3-1,5,4,4,4,4,3,
7/28/2017 11:20:38,03-3-2,5,5,5,5,4,2,
7/28/2017 11:26:25,03-3-3,5,5,5,5,5,2,
7/28/2017 11:30:53,03-3-4,5,5,5,5,4,2,
7/28/2017 11:34:47,03-3-5,5,5,5,5,4,2,
7/28/2017 11:47:35,03-4-1,5,5,5,5,5,1,
7/28/2017 11:52:38,03-4-2,5,5,5,5,5,1,
7/28/2017 11:57:10,03-4-3,5,5,5,5,5,1,
7/28/2017 12:01:31,03-4-4,5,5,5,5,5,1,
7/28/2017 12:07:07,03-4-5,5,5,5,5,5,1,
7/28/2017 12:11:16,03-4-6,5,5,5,5,5,1,
7/28/2017 12:15:20,03-4-7,5,5,5,5,5,1,
7/28/2017 12:19:40,03-4-8,5,5,5,5,5,1,
7/28/2017 12:23:27,03-4-9,5,5,5,5,5,1,
8/4/2017 14:26:03,04-1-1,5,5,5,4,2,4,
8/4/2017 14:30:37,04-1-2,5,5,4,4,4,1,
8/4/2017 14:34:38,04-1-3,4,4,5,3,1,2,
8/4/2017 14:38:39,04-1-4,4,5,5,3,2,1,
8/4/2017 14:42:44,04-1-5,4,3,4,3,1,1,
8/4/2017 14:50:24,04-2-1,4,4,3,3,2,1,
8/4/2017 14:54:06,04-2-2,3,4,5,3,1,1,
8/4/2017 14:57:58,04-2-3,4,3,5,3,3,1,
8/4/2017 15:01:43,04-2-4,4,3,5,5,2,1,
8/4/2017 15:05:59,04-2-5,4,4,5,4,2,1,
8/4/2017 15:14:47,04-3-1,4,4,5,3,3,2,
8/4/2017 15:18:47,04-3-2,4,4,4,3,2,2,
8/4/2017 15:22:42,04-3-3,4,4,5,3,2,2,
8/4/2017 15:26:36,04-3-4,4,4,5,4,3,2,
8/4/2017 15:30:19,04-3-5,4,4,5,4,4,2,
8/4/2017 15:37:54,04-4-1,4,4,5,4,3,3,
8/4/2017 15:41:41,04-4-2,4,4,5,4,3,3,
8/4/2017 15:46:05,04-4-3,4,4,5,4,4,3,
8/4/2017 15:50:03,04-4-4,4,4,5,3,3,2,
8/4/2017 15:53:38,04-4-5,4,5,4,4,4,3,
8/4/2017 15:57:18,04-4-6,5,4,5,4,4,3,
8/4/2017 16:01:11,04-4-7,5,4,5,4,3,3,
8/4/2017 16:04:48,04-4-8,5,5,5,4,4,3,
8/4/2017 16:08:21,04-4-9,5,4,5,4,4,4,
8/7/2017 17:58:44,05-1-1,5,5,5,1,1,5,
8/7/2017 18:02:35,05-1-2,5,5,5,1,1,5,
8/7/2017 18:06:06,05-1-3,5,5,5,1,1,5,
8/7/2017 18:09:55,05-1-4,4,4,4,4,1,5,
8/7/2017 18:13:26,05-1-5,5,5,5,1,1,5,
8/7/2017 18:18:25,05-2-1,5,5,5,2,1,4,
8/7/2017 18:22:15,05-2-2,5,5,5,1,1,4,
8/7/2017 18:25:51,05-2-3,5,5,5,2,1,5,
8/7/2017 18:29:17,05-2-4,5,5,5,1,1,5,
8/7/2017 18:32:45,05-2-5,5,5,5,2,2,4,
8/7/2017 18:37:34,05-3-1,5,5,5,2,2,4,
8/7/2017 18:41:09,05-3-2,5,5,5,2,2,4,
8/7/2017 18:44:35,05-3-3,4,4,4,4,2,4,
8/7/2017 18:48:03,05-3-4,4,4,4,2,2,4,
8/7/2017 18:51:31,05-3-5,4,4,4,2,2,4,
8/7/2017 18:55:59,05-4-1,5,5,5,3,3,3,
8/7/2017 18:59:26,05-4-2,5,5,5,3,3,3,
8/7/2017 19:02:53,05-4-3,5,5,5,3,2,3,
8/7/2017 19:06:16,05-4-4,5,5,5,3,2,3,
8/7/2017 19:09:41,05-4-5,5,5,5,3,2,3,
8/7/2017 19:13:07,05-4-6,5,5,5,3,2,3,
8/7/2017 19:16:41,05-4-7,5,5,5,4,2,3,
8/7/2017 19:20:14,05-4-8,5,5,5,3,2,3,
8/7/2017 19:23:36,05-4-9,5,5,5,3,2,3,
8/8/2017 9:49:59,06-1-1,5,4,4,5,4,3,
8/8/2017 9:53:45,06-1-2,4,4,4,5,4,3,
8/8/2017 9:57:26,06-1-3,4,5,4,4,3,3,
8/8/2017 10:01:04,06-1-4,4,4,4,5,3,2,
8/8/2017 10:04:36,06-1-5,4,4,3,5,3,2,
8/8/2017 10:09:20,06-2-1,5,5,4,5,5,4,
8/8/2017 10:13:16,06-2-2,5,5,4,4,4,4,
8/8/2017 10:17:10,06-2-3,5,5,4,4,5,3,
8/8/2017 10:20:48,06-2-4,5,5,4,4,4,3,
8/8/2017 10:24:22,06-2-5,5,5,4,5,4,4,
8/8/2017 10:35:31,06-3-1,5,4,5,4,3,3,
8/8/2017 10:39:10,06-3-2,4,3,4,3,4,3,
8/8/2017 10:42:52,06-3-3,4,4,4,4,3,4,
8/8/2017 10:46:29,06-3-4,4,4,4,4,4,4,
8/8/2017 10:50:05,06-3-5,3,3,4,4,4,4,
8/8/2017 10:55:50,06-4-1,4,5,4,4,5,4,
8/8/2017 10:59:29,06-4-2,5,4,4,5,5,4,
8/8/2017 11:02:59,06-4-3,5,4,5,4,5,5,
8/8/2017 11:06:32,06-4-4,4,4,4,5,5,5,
8/8/2017 11:10:15,06-4-5,4,5,5,5,4,3,
8/8/2017 11:13:46,06-4-6,5,5,4,4,4,2,
8/8/2017 11:17:27,06-4-7,5,4,5,4,4,2,
8/8/2017 11:21:00,06-4-8,5,4,4,4,4,1,
8/8/2017 11:24:35,06-4-9,4,4,5,4,4,1,
8/8/2017 17:54:43,07-1-1,5,5,5,5,4,1,
8/8/2017 17:58:34,07-1-2,4,4,4,3,5,1,
8/8/2017 18:02:12,07-1-3,4,4,4,4,5,1,
8/8/2017 18:05:43,07-1-4,5,5,5,4,5,1,
8/8/2017 18:09:10,07-1-5,5,5,5,5,5,1,
8/8/2017 18:14:38,7-2-1,5,3,4,3,5,1,
8/8/2017 18:18:21,7-2-2,4,4,4,4,5,1,
8/8/2017 18:22:06,7-2-3,4,5,4,5,5,1,
8/8/2017 18:25:33,07-2-4,5,4,4,4,5,1,
8/8/2017 18:29:00,07-2-5,5,5,5,5,5,1,
8/8/2017 18:34:53,07-3-1,4,3,4,4,5,1,
8/8/2017 18:38:32,07-3-2,4,4,4,5,5,1,
8/8/2017 18:42:09,07-3-3,4,3,3,3,5,1,
8/8/2017 18:45:43,07-3-4,4,4,4,3,5,1,
8/8/2017 18:49:16,07-3-5,5,4,4,4,5,1,
8/8/2017 18:55:00,07-4-1,5,4,4,4,5,1,
8/8/2017 18:58:26,07-4-2,4,3,4,3,5,1,
8/8/2017 19:01:58,07-4-3,4,4,3,3,5,1,
8/8/2017 19:05:40,07-4-4,4,4,4,4,5,1,
8/8/2017 19:09:05,07-4-5,5,3,3,3,5,1,
8/8/2017 19:12:47,07-4-6,5,4,4,3,5,1,
8/8/2017 19:16:16,07-4-7,4,3,3,3,5,1,
8/8/2017 19:19:48,07-4-8,4,4,4,3,5,1,
8/8/2017 19:23:26,07-4-9,4,3,4,3,5,1,
8/9/2017 12:46:32,08-1-1,5,5,5,3,2,2,
8/9/2017 12:50:20,08-1-2,5,5,5,3,2,2,
8/9/2017 12:54:11,08-1-3,5,5,5,2,2,2,
8/9/2017 12:57:34,08-1-4,5,5,5,2,2,2,
8/9/2017 13:00:55,08-1-5,5,5,5,2,2,2,
8/9/2017 13:05:57,08-2-1,5,5,5,4,4,1,
8/9/2017 13:09:23,08-2-2,5,5,5,4,4,1,
8/9/2017 13:12:49,08-2-3,5,5,5,5,4,1,
8/9/2017 13:16:17,08-2-4,5,5,5,4,4,1,
8/9/2017 13:19:38,08-2-5,5,5,5,5,5,1,
8/9/2017 13:25:03,08-3-1,5,5,5,5,5,1,
8/9/2017 13:28:24,08-3-2,5,5,5,5,5,1,
8/9/2017 13:31:48,08-3-3,5,5,5,5,5,1,
8/9/2017 13:35:35,08-3-4,5,5,5,5,5,1,
8/9/2017 13:39:07,08-3-5,5,5,5,5,5,1,
8/9/2017 13:43:32,08-4-1,5,5,5,5,5,1,
8/9/2017 13:47:03,08-4-2,5,5,5,5,5,1,
8/9/2017 13:50:29,08-4-3,5,5,5,5,5,1,
8/9/2017 13:53:52,08-4-4,5,5,5,5,5,1,
8/9/2017 13:57:18,08-4-5,5,5,5,5,5,1,
8/9/2017 14:01:40,08-4-6,5,5,5,5,5,1,
8/9/2017 14:05:05,08-4-7,5,5,5,5,5,1,
8/9/2017 14:08:33,08-4-8,5,5,5,5,5,1,
8/9/2017 14:12:49,08-4-9,5,5,5,5,5,1,
8/10/2017 10:16:51,09-1-1,5,5,5,2,1,2,
8/10/2017 10:20:36,09-1-2,5,5,4,1,1,3,
8/10/2017 10:24:20,09-1-3,4,4,4,1,1,4,
8/10/2017 10:28:01,09-1-4,4,4,4,1,1,3,
8/10/2017 10:31:52,09-1-5,4,4,4,1,1,4,
8/10/2017 10:37:23,09-2-1,5,5,5,3,2,1,
8/10/2017 10:41:02,09-2-2,5,5,5,3,2,1,
8/10/2017 10:44:30,09-2-3,5,5,5,2,2,1,
8/10/2017 10:47:54,09-2-4,5,5,5,2,2,2,
8/10/2017 10:51:14,09-2-5,5,5,5,5,3,1,
8/10/2017 10:55:11,09-3-1,5,5,5,3,3,1,
8/10/2017 10:58:32,09-3-2,5,5,5,4,3,1,
8/10/2017 11:01:51,09-3-3,5,5,5,4,4,1,
8/10/2017 11:05:21,09-3-4,5,5,5,3,3,1,
8/10/2017 11:08:47,09-3-5,5,5,5,4,3,1,
8/10/2017 11:12:43,09-4-1,5,5,5,4,3,1,
8/10/2017 11:16:03,09-4-2,5,5,5,4,4,1,
8/10/2017 11:19:25,09-4-3,5,5,5,4,4,1,
8/10/2017 11:22:44,09-4-4,5,5,5,5,4,1,
8/10/2017 11:26:03,09-4-5,5,5,5,5,5,1,
8/10/2017 11:29:22,09-4-6,5,5,5,5,4,1,
8/10/2017 11:32:42,09-4-7,5,5,5,4,3,1,
8/10/2017 11:36:00,09-4-8,5,5,5,4,4,1,
8/10/2017 11:39:21,09-4-9,5,5,5,5,3,1,
8/14/2017 10:49:41,10-1-1,4,4,4,2,2,2,
8/14/2017 10:53:48,10-1-2,5,4,4,2,2,4,
8/14/2017 10:57:35,10-1-3,2,5,2,2,2,4,
8/14/2017 11:01:32,10-1-4,2,5,1,1,2,4,
8/14/2017 11:05:12,10-1-5,3,4,3,2,2,3,
8/14/2017 11:10:48,10-2-1,5,1,4,4,4,1,
8/14/2017 11:14:28,10-2-2,5,1,4,4,3,1,
8/14/2017 11:18:03,10-2-3,4,1,4,4,4,1,
8/14/2017 11:21:42,10-2-4,4,2,4,5,4,1,
8/14/2017 11:25:26,10-2-5,4,4,4,4,3,1,
8/14/2017 11:32:04,10-3-1,4,1,4,4,4,1,
8/14/2017 11:35:57,10-3-2,4,2,4,3,3,1,
8/14/2017 11:40:59,10-3-3,4,2,4,4,3,1,
8/14/2017 11:44:42,10-3-4,4,1,4,4,4,1,
8/14/2017 11:48:21,10-3-5,4,2,4,4,3,1,
8/14/2017 11:54:31,10-4-1,4,4,4,3,3,1,
8/14/2017 11:58:29,10-4-2,4,4,4,4,3,1,
8/14/2017 12:02:05,10-4-3,4,4,3,3,3,1,
8/14/2017 12:05:40,10-4-4,4,1,2,3,2,1,
8/14/2017 12:09:22,10-4-5,4,4,4,3,3,1,
8/14/2017 12:13:09,10-4-6,4,4,3,3,2,1,
8/14/2017 12:16:39,10-4-7,4,4,3,3,3,1,
8/14/2017 12:20:21,10-4-8,4,4,3,4,2,1,
8/14/2017 12:23:57,10-4-9,4,4,3,4,3,1,
8/14/2017 13:54:04,11-1-1,5,5,4,5,2,4,
8/14/2017 13:57:51,11-1-2,5,5,4,5,2,4,
8/14/2017 14:01:27,11-1-3,5,5,4,4,2,4,
8/14/2017 14:05:04,11-1-4,5,5,4,4,2,4,
8/14/2017 14:08:32,11-1-5,5,5,4,4,2,4,
8/14/2017 14:13:02,11-2-1,5,5,4,5,3,3,
8/14/2017 14:16:31,11-2-2,5,5,4,5,3,3,
8/14/2017 14:20:04,11-2-3,5,5,4,5,3,3,
8/14/2017 14:23:25,11-2-4,5,5,4,5,3,3,
8/14/2017 14:26:47,11-2-5,5,5,4,5,3,3,
8/14/2017 14:31:41,11-3-1,5,5,4,5,4,2,
8/14/2017 14:35:12,11-3-2,5,5,4,5,4,2,
8/14/2017 14:38:43,11-3-3,5,5,3,5,4,2,
8/14/2017 14:42:14,11-3-4,4,4,3,3,4,2,
8/14/2017 14:45:43,11-3-5,3,3,3,3,3,2,
8/14/2017 14:50:14,11-4-1,3,3,3,3,5,1,
8/14/2017 14:53:48,11-4-2,2,2,2,5,5,1,
8/14/2017 14:57:13,11-4-3,2,2,2,2,5,1,
8/14/2017 15:00:37,11-4-4,1,1,1,1,5,1,
8/14/2017 15:04:03,11-4-5,1,1,1,1,5,1,
8/14/2017 15:07:25,11-4-6,1,1,1,1,5,1,
8/14/2017 15:10:49,11-4-7,1,1,1,1,5,1,
8/14/2017 15:14:15,11-4-8,2,2,2,2,5,1,
8/14/2017 15:17:50,11-4-9,4,4,4,4,5,1,
8/15/2017 10:25:28,12-1-1,4,3,4,4,1,5,
8/15/2017 10:29:41,12-1-2,5,1,4,3,1,5,
8/15/2017 10:33:25,12-1-3,5,1,5,2,1,5,
8/15/2017 10:37:58,12-1-4,5,1,5,1,1,5,
8/15/2017 10:42:32,12-1-5,5,1,5,1,1,5,
8/15/2017 10:48:48,12-2-1,5,4,5,3,1,5,
8/15/2017 10:52:22,12-2-2,5,3,5,2,1,5,
8/15/2017 10:55:44,12-2-3,5,2,5,1,1,5,
8/15/2017 10:59:13,12-2-4,5,4,5,2,1,5,
8/15/2017 11:02:37,12-2-5,5,3,5,1,1,5,
8/15/2017 11:07:10,12-3-1,5,3,5,4,2,5,
8/15/2017 11:12:00,12-3-2,5,3,5,4,3,5,
8/15/2017 11:15:50,12-3-3,5,4,5,4,3,3,
8/15/2017 11:19:22,12-3-4,5,4,5,5,3,3,
8/15/2017 11:22:53,12-3-5,5,4,5,4,3,3,
8/15/2017 11:27:28,12-4-1,5,3,5,3,2,2,
8/15/2017 11:31:01,12-4-2,5,3,5,2,2,2,
8/15/2017 11:34:35,12-4-3,5,3,5,3,2,2,
8/15/2017 11:38:03,12-4-4,5,3,5,4,2,1,
8/15/2017 11:41:40,12-4-5,5,4,5,4,3,2,
8/15/2017 11:45:18,12-4-6,5,5,5,4,2,1,
8/15/2017 11:48:48,12-4-7,5,5,5,4,3,1,
8/15/2017 11:52:38,12-4-8,5,5,5,4,2,1,
8/15/2017 11:56:35,12-4-9,5,5,5,4,4,1,
8/15/2017 14:17:38,13-1-1,4,4,3,2,1,4,
8/15/2017 14:21:21,13-1-2,4,4,3,2,1,4,
8/15/2017 14:25:35,13-1-3,4,4,3,2,1,4,
8/15/2017 14:30:35,13-1-4,4,4,4,3,1,4,
8/15/2017 14:34:03,13-1-5,3,2,2,2,1,5,
8/15/2017 14:38:42,13-2-1,5,4,4,4,2,2,
8/15/2017 14:42:09,13-2-2,5,5,4,4,3,1,
8/15/2017 14:45:34,13-2-3,5,5,4,4,2,1,
8/15/2017 14:48:58,13-2-4,5,5,4,5,3,1,
8/15/2017 14:52:21,13-2-5,4,4,4,4,3,2,
8/15/2017 15:00:20,13-3-1,4,4,4,4,3,1,
8/15/2017 15:04:01,13-3-2,5,5,4,4,3,1,
8/15/2017 15:07:30,13-3-3,5,5,4,4,3,1,
8/15/2017 15:11:12,13-3-4,5,5,4,4,4,1,
8/15/2017 15:14:44,13-3-5,5,5,4,3,3,1,
8/15/2017 15:21:29,13-4-1,5,5,4,5,4,1,
8/15/2017 15:25:29,13-4-2,5,5,4,4,4,1,
8/15/2017 15:29:16,13-4-3,4,4,3,3,4,1,
8/15/2017 15:32:46,13-4-4,5,5,4,4,3,1,
8/15/2017 15:36:15,13-4-5,5,5,3,4,3,1,
8/15/2017 15:39:44,13-4-6,4,4,3,3,3,1,
8/15/2017 15:43:19,13-4-7,5,5,4,4,3,1,
8/15/2017 15:46:46,13-4-8,4,4,4,4,4,1,
8/15/2017 15:50:20,13-4-9,5,5,4,5,3,1,
8/16/2017 10:02:36,14-1-1,4,4,3,4,3,2,
8/16/2017 10:06:10,14-1-2,3,3,3,3,3,2,
8/16/2017 10:09:31,14-1-3,3,3,3,4,3,2,
8/16/2017 10:12:57,14-1-4,4,3,3,3,3,2,
8/16/2017 10:16:18,14-1-5,3,3,3,3,2,3,
8/16/2017 10:20:32,14-2-1,4,4,4,4,4,1,
8/16/2017 10:23:50,14-2-2,4,4,4,4,4,1,
8/16/2017 10:27:10,14-2-3,4,4,4,4,4,1,
8/16/2017 10:30:28,14-2-4,4,4,4,3,4,1,
8/16/2017 10:33:53,14-2-5,4,4,4,4,4,1,
8/16/2017 10:38:10,14-3-1,4,4,4,4,4,1,
8/16/2017 10:41:30,14-3-2,4,4,4,4,5,1,
8/16/2017 10:44:48,14-3-3,4,4,4,4,5,1,
8/16/2017 10:48:05,14-3-4,4,4,4,5,5,1,
8/16/2017 10:51:23,14-3-5,4,4,4,5,5,1,
8/16/2017 10:55:28,14-4-1,4,5,4,5,4,1,
8/16/2017 10:58:46,14-4-2,4,4,5,5,4,1,
8/16/2017 11:02:05,14-4-3,4,5,4,5,5,1,
8/16/2017 11:05:22,14-4-4,4,5,5,5,4,1,
8/16/2017 11:08:42,14-4-5,4,4,4,5,4,1,
8/16/2017 11:12:03,14-4-6,4,4,4,4,5,1,
8/16/2017 11:15:27,14-4-7,4,5,4,4,5,1,
8/16/2017 11:18:45,14-4-8,4,4,4,4,5,1,
8/16/2017 11:22:13,14-4-9,4,4,4,3,5,1,
8/17/2017 9:43:55,15-1-1,5,5,5,5,1,3,
8/17/2017 9:47:25,15-1-2,5,5,5,5,1,3,
8/17/2017 9:51:05,15-1-3,5,5,5,5,1,4,
8/17/2017 9:54:40,15-1-4,5,5,5,5,1,5,
8/17/2017 9:58:11,15-1-5,5,5,5,5,1,5,
8/17/2017 10:02:48,15-2-1,5,5,5,5,2,2,
8/17/2017 10:10:01,15-2-1a,5,5,5,5,2,3,
8/17/2017 10:13:31,15-2-2,5,5,4,5,1,4,
8/17/2017 10:16:53,15-2-3,5,5,5,5,2,4,
8/17/2017 10:20:14,15-2-4,5,5,5,5,1,4,
8/17/2017 10:23:39,15-2-5,5,5,5,5,1,4,
8/17/2017 10:28:17,15-3-1,5,5,5,5,2,2,
8/17/2017 10:31:40,15-3-2,5,5,5,5,3,2,
8/17/2017 10:35:07,15-3-3,5,5,5,5,2,1,
8/17/2017 10:38:33,15-3-4,5,5,5,4,2,2,
8/17/2017 10:41:54,15-3-5,5,5,5,5,3,1,
8/17/2017 10:46:41,15-4-1,5,5,5,5,4,1,
8/17/2017 10:50:04,15-4-2,5,5,5,5,3,1,
8/17/2017 10:53:32,15-4-3,5,5,5,5,3,1,
8/17/2017 10:56:53,15-4-4,5,5,5,5,2,1,
8/17/2017 11:00:17,15-4-5,5,5,5,4,4,1,
8/17/2017 11:03:38,15-4-6,5,5,5,5,3,1,
8/17/2017 11:06:58,15-4-7,5,5,5,5,3,1,
8/17/2017 11:10:21,15-4-8,5,5,5,5,3,1,
8/17/2017 11:13:43,15-4-9,5,5,5,5,3,1,
8/17/2017 13:47:46,16-1-1,5,5,4,5,4,1,
8/17/2017 13:51:28,16-1-2,3,5,5,4,5,1,
8/17/2017 13:54:59,16-1-3,5,5,5,5,3,1,
8/17/2017 13:58:32,16-1-4,5,5,5,4,4,1,
8/17/2017 14:02:05,16-1-5,5,5,5,4,2,1,
8/17/2017 14:06:47,16-2-1,3,3,5,4,5,1,
8/17/2017 14:12:40,16-2-1a,5,5,5,5,3,1,
8/17/2017 14:16:18,16-2-2,5,4,5,4,5,1,
8/17/2017 14:19:45,16-2-3,5,5,5,5,2,1,
8/17/2017 14:23:23,16-2-4,5,5,5,5,2,1,
8/17/2017 14:26:52,16-2-5,4,5,5,4,5,1,
8/17/2017 14:32:31,16-3-1,5,5,5,4,3,1,
8/17/2017 14:36:54,16-3-2,4,4,5,4,3,2,
8/17/2017 14:40:30,16-3-3,4,4,4,4,5,2,
8/17/2017 14:44:07,16-3-4,3,4,3,4,3,2,
8/17/2017 14:47:49,16-3-5,4,3,4,4,2,2,
8/17/2017 14:52:20,16-4-1,2,2,3,3,5,2,
8/17/2017 14:56:00,16-4-2,2,3,2,2,5,3,
8/17/2017 14:59:43,16-4-3,3,4,3,4,4,2,
8/17/2017 15:03:22,16-4-4,4,4,3,4,2,1,
8/17/2017 15:07:04,16-4-5,5,5,4,5,3,1,
8/17/2017 15:10:42,16-4-6,5,5,5,5,4,1,
8/17/2017 15:14:22,16-4-7,5,5,5,5,5,1,
8/17/2017 15:18:30,16-4-8,4,5,5,4,4,1,
8/17/2017 15:22:02,16-4-9,5,5,5,5,3,1,
8/17/2017 17:49:09,17-1-1,1,1,1,1,1,1,
8/17/2017 17:52:53,17-1-2,1,2,2,1,1,1,
8/17/2017 17:56:43,17-1-3,1,2,1,1,1,1,
8/17/2017 18:00:07,17-1-4,1,1,1,1,1,1,
8/17/2017 18:03:46,17-1-5,1,1,1,1,1,1,
8/17/2017 18:08:29,17-2-1,3,2,2,2,1,3,
8/17/2017 18:12:18,17-2-2,3,2,2,2,1,2,
8/17/2017 18:16:03,17-2-3,3,2,2,3,1,2,
8/17/2017 18:19:40,17-2-4,2,1,1,1,1,2,
8/17/2017 18:23:20,17-2-5,3,3,3,3,1,3,
8/17/2017 18:29:01,17-3-1,4,4,3,3,2,2,
8/17/2017 18:32:50,17-3-2,4,3,3,3,2,2,
8/17/2017 18:36:22,17-3-3,4,4,4,4,2,2,
8/17/2017 18:40:06,17-3-4,4,4,4,4,3,1,
8/17/2017 18:43:54,17-3-5,5,5,5,4,2,1,
8/17/2017 18:48:31,17-4-1,4,3,3,3,2,1,
8/17/2017 18:52:17,17-4-2,5,5,5,5,2,1,
8/17/2017 18:55:46,17-4-3,5,5,5,5,2,1,
8/17/2017 18:59:28,17-4-4,4,5,4,4,2,2,
8/17/2017 19:03:07,17-4-5,4,4,3,3,2,2,
8/17/2017 19:06:59,17-4-6,5,5,5,5,2,1,
8/17/2017 19:10:33,17-4-7,5,5,5,5,2,1,
8/17/2017 19:14:03,17-4-8,4,4,3,3,2,2,
8/17/2017 19:17:46,17-4-9,5,5,4,3,2,3,
8/18/2017 14:26:15,18-1-1,5,4,5,5,3,1,
8/18/2017 14:32:55,18-1-2,5,5,5,5,2,1,
8/18/2017 14:37:01,18-1-3,5,5,5,5,1,1,
8/18/2017 14:41:09,18-1-4,5,5,5,4,4,1,
8/18/2017 14:45:16,18-1-5,5,5,5,5,3,1,
8/18/2017 14:51:41,18-2-1,5,5,5,5,4,1,
8/18/2017 14:55:21,18-2-2,5,5,5,5,5,1,
8/18/2017 14:59:27,18-2-3,5,5,5,4,2,1,
8/18/2017 15:03:14,18-2-4,5,5,5,3,3,1,
8/18/2017 15:07:11,18-2-5,5,5,5,4,1,1,
8/18/2017 15:15:23,18-3-1,5,5,5,5,5,1,
8/18/2017 15:19:20,18-3-2,5,5,5,5,5,4,
8/18/2017 15:26:42,18-3-1a,5,5,5,3,4,3,
8/18/2017 15:30:35,18-3-2a,5,5,5,4,3,2,
8/18/2017 15:34:30,18-3-3,5,5,5,5,5,4,
8/18/2017 15:38:27,18-3-4,5,5,5,5,5,4,
8/18/2017 15:42:21,18-3-5,5,5,5,5,5,2,
8/18/2017 15:48:02,18-4-1,5,5,5,5,5,2,
8/18/2017 15:52:17,18-4-2,5,5,5,5,5,1,
8/18/2017 15:56:13,18-4-3,5,5,5,4,5,4,
8/18/2017 16:00:24,18-4-4,5,4,5,4,5,4,
8/18/2017 16:04:23,18-4-5,4,4,5,4,5,4,
8/18/2017 16:08:05,18-4-6,5,5,5,5,5,2,
8/18/2017 16:11:52,18-4-7,5,5,5,4,4,2,
8/18/2017 16:15:48,18-4-8,5,5,5,3,3,1,
8/18/2017 16:19:43,18-4-9,5,5,5,4,4,2,
8/21/2017 10:15:35,19-1-1,3,2,2,2,1,4,
8/21/2017 10:19:36,19-1-2,3,3,2,3,2,3,
8/21/2017 10:23:16,19-1-3,3,2,2,2,2,4,
8/21/2017 10:26:52,19-1-4,2,2,2,2,2,4,
8/21/2017 10:30:22,19-1-5,2,2,2,2,2,4,
8/21/2017 10:35:55,19-2-1,2,2,2,3,3,3,
8/21/2017 10:39:38,19-2-2,3,2,2,3,3,3,
8/21/2017 10:43:12,19-2-3,3,2,3,3,3,3,
8/21/2017 10:46:42,19-2-4,3,2,3,3,3,3,
8/21/2017 10:50:08,19-2-5,3,3,3,3,3,3,
8/21/2017 10:55:10,19-3-1,3,3,2,4,4,2,
8/21/2017 10:59:02,19-3-2,3,3,2,3,3,2,
8/21/2017 11:02:44,19-3-3,3,3,3,3,4,2,
8/21/2017 11:06:21,19-3-4,4,3,3,4,4,1,
8/21/2017 11:09:57,19-3-5,3,3,3,4,4,2,
8/21/2017 11:14:59,19-4-1,4,3,3,4,4,1,
8/21/2017 11:18:38,19-4-2,4,4,4,5,5,1,
8/21/2017 11:22:15,19-4-3,5,4,4,5,5,1,
8/21/2017 11:25:48,19-4-4,5,5,5,5,5,1,
8/21/2017 11:29:29,19-4-5,5,5,5,5,5,1,
8/21/2017 11:32:59,19-4-6,5,5,5,5,5,1,
8/21/2017 11:36:42,19-4-7,5,5,5,5,5,1,
8/21/2017 11:40:15,19-4-8,5,5,5,5,5,1,
8/21/2017 11:43:44,19-4-9,5,5,5,5,5,1,
8/21/2017 18:03:12,20-1-1,4,3,3,3,3,4,
8/21/2017 18:06:58,20-1-2,5,4,4,4,2,3,
8/21/2017 18:10:42,20-1-3,5,5,5,3,3,3,
8/21/2017 18:14:22,20-1-4,5,4,5,4,3,3,
8/21/2017 18:17:57,20-1-5,5,5,5,3,2,4,
8/21/2017 18:22:48,20-2-1,5,5,5,4,4,1,
8/21/2017 18:26:16,20-2-2,5,5,5,5,3,1,
8/21/2017 18:29:45,20-2-3,5,5,5,4,2,1,
8/21/2017 18:33:19,20-2-4,5,5,5,3,3,1,
8/21/2017 18:37:20,20-2-5,5,5,5,5,3,1,
8/21/2017 18:42:31,20-3-1,5,5,5,5,5,1,
8/21/2017 18:45:54,20-3-2,5,5,5,5,4,1,
8/21/2017 18:49:19,20-3-3,5,5,5,5,4,1,
8/21/2017 18:52:59,20-3-4,5,5,5,5,5,1,
8/21/2017 18:56:29,20-3-5,5,5,5,5,4,1,
8/21/2017 19:00:49,20-4-1,5,5,5,4,4,1,
8/21/2017 19:04:14,20-4-2,5,5,5,5,5,1,
8/21/2017 19:07:52,20-4-3,5,5,5,5,4,1,
8/21/2017 19:11:24,20-4-4,5,5,5,4,4,1,
8/21/2017 19:14:48,20-4-5,5,5,5,4,4,1,
8/21/2017 19:18:20,20-4-6,5,5,5,4,4,1,
8/21/2017 19:21:46,20-4-7,5,5,5,4,3,1,
8/21/2017 19:25:14,20-4-8,5,5,5,5,4,1,
8/21/2017 19:28:50,20-4-9,5,5,5,5,4,1,
8/23/2017 9:39:11,21-1-1,5,5,5,5,5,1,
8/23/2017 9:43:10,21-1-2,5,5,5,5,5,1,
8/23/2017 9:46:39,21-1-3,5,5,5,5,5,1,
8/23/2017 9:50:03,21-1-4,5,5,5,5,5,1,
8/23/2017 9:54:02,21-1-5,5,5,5,5,5,1,
8/23/2017 9:58:12,21-2-1,5,5,5,5,5,1,
8/23/2017 10:01:38,21-2-2,5,5,5,5,5,1,
8/23/2017 10:05:06,21-2-3,5,5,5,5,5,2,
8/23/2017 10:08:44,21-2-4,5,5,5,5,5,2,
8/23/2017 10:12:20,21-2-5,5,5,5,5,5,2,
8/23/2017 10:17:23,21-3-1,5,5,5,5,5,1,
8/23/2017 10:20:50,21-3-2,5,5,5,5,5,1,
8/23/2017 10:24:25,21-3-3,5,5,5,5,5,1,
8/23/2017 10:34:51,21-3-1a,5,5,5,5,5,1,
8/23/2017 10:38:16,21-3-2a,5,5,5,5,5,1,
8/23/2017 10:41:43,21-3-3a,5,5,5,5,5,1,
8/23/2017 10:45:08,21-3-4,5,5,5,5,5,1,
8/23/2017 10:48:33,21-3-5,5,5,5,5,5,1,
8/23/2017 10:53:21,21-4-1,5,5,5,5,5,1,
8/23/2017 10:56:45,21-4-2,5,5,5,5,5,1,
8/23/2017 11:00:11,21-4-3,5,5,5,5,5,1,
8/23/2017 11:03:43,21-4-4,5,5,5,5,5,5,
8/23/2017 11:07:21,21-4-5,5,5,5,5,5,1,
8/23/2017 11:10:47,21-4-6,5,5,5,5,5,1,
8/23/2017 11:14:18,21-4-7,5,5,5,5,3,1,
8/23/2017 11:17:48,21-4-8,5,5,5,5,3,1,
8/23/2017 11:21:16,21-4-9,5,5,5,5,3,1,
8/23/2017 13:52:53,22-1-1,5,5,4,1,1,4,
8/23/2017 13:57:39,22-1-2,5,5,5,3,1,1,
8/23/2017 14:01:30,22-1-3,4,4,4,3,1,1,
8/23/2017 14:05:24,22-1-4,4,4,4,2,1,1,
8/23/2017 14:10:10,22-1-5,4,4,4,2,2,2,
8/23/2017 14:15:43,22-2-1,5,5,5,3,2,3,
8/23/2017 14:19:33,22-2-2,5,5,5,4,2,3,
8/23/2017 14:23:04,22-2-3,5,5,5,3,2,3,
8/23/2017 14:27:22,22-2-4,5,5,5,3,2,3,
8/23/2017 14:31:26,22-2-5,5,5,5,3,3,3,
8/23/2017 14:36:16,22-3-1,5,5,5,4,3,2,
8/23/2017 14:40:00,22-3-2,5,5,5,4,3,2,
8/23/2017 14:43:33,22-3-3,5,5,5,5,4,1,
8/23/2017 14:47:08,22-3-4,5,5,5,4,4,2,
8/23/2017 14:50:53,22-3-5,5,5,5,4,4,1,
8/23/2017 14:55:46,22-4-1,5,5,5,5,4,1,
8/23/2017 14:59:25,22-4-2,5,5,5,4,4,1,
8/23/2017 15:02:59,22-4-3,5,5,5,4,4,1,
8/23/2017 15:06:33,22-4-4,5,5,5,4,4,2,
8/23/2017 15:10:11,22-4-5,5,5,4,4,4,2,
8/23/2017 15:13:57,22-4-6,4,4,4,4,3,3,
8/23/2017 15:17:42,22-4-7,4,4,4,4,3,2,
8/23/2017 15:21:21,22-4-8,5,5,5,4,3,2,
8/23/2017 15:24:54,22-4-9,5,5,5,5,2,2,
8/24/2017 17:04:32,23-1-1,4,4,4,4,2,3,
8/24/2017 17:08:22,23-1-2,4,4,4,4,2,3,
8/24/2017 17:11:55,23-1-3,4,4,4,4,2,3,
8/24/2017 17:15:31,23-1-4,4,4,4,3,2,3,
8/24/2017 17:19:07,23-1-5,4,4,4,3,2,4,
8/24/2017 17:24:08,23-2-1,4,4,4,5,3,2,
8/24/2017 17:27:37,23-2-2,4,4,4,4,3,3,
8/24/2017 17:31:21,23-2-3,4,4,4,4,3,3,
8/24/2017 17:34:57,23-2-4,4,4,4,3,2,3,
8/24/2017 17:38:21,23-2-5,4,4,4,3,2,3,
8/24/2017 17:42:54,23-3-1,4,4,4,5,4,1,
8/24/2017 17:46:17,23-3-2,4,4,4,5,4,1,
8/24/2017 17:49:49,23-3-3,4,4,4,4,4,1,
8/24/2017 17:53:19,23-3-4,4,4,4,4,4,1,
8/24/2017 17:56:47,23-3-5,4,4,4,4,4,1,
8/24/2017 18:01:07,23-4-1,4,4,4,4,4,1,
8/24/2017 18:04:31,23-4-2,4,4,4,4,4,1,
8/24/2017 18:08:10,23-4-3,4,4,4,4,4,1,
8/24/2017 18:11:39,23-4-4,4,4,4,4,3,1,
8/24/2017 18:15:13,23-4-5,4,4,4,4,4,1,
8/24/2017 18:18:41,23-4-6,4,4,4,4,3,1,
8/24/2017 18:22:08,23-4-7,4,4,4,4,3,1,
8/24/2017 18:25:34,23-4-8,4,4,4,4,3,1,
8/24/2017 18:28:58,23-4-9,4,4,4,4,3,1,
8/27/2017 14:11:27,24-1-1,5,5,5,4,1,5,
8/27/2017 14:14:58,24-1-2,5,5,5,3,1,5,
8/27/2017 14:18:30,24-1-3,5,5,5,5,2,4,
8/27/2017 14:21:58,24-1-4,5,5,5,3,1,5,
8/27/2017 14:25:37,24-1-5,5,5,5,4,1,5,
8/27/2017 14:29:42,24-2-1,5,5,5,4,2,3,
8/27/2017 14:33:05,24-2-2,5,5,5,5,2,2,
8/27/2017 14:36:46,24-2-3,5,5,5,5,2,2,
8/27/2017 14:40:23,24-2-4,5,5,5,5,3,2,
8/27/2017 14:44:28,24-2-5,5,5,5,4,3,2,
8/27/2017 14:48:55,24-3-1,5,5,5,4,3,1,
8/27/2017 14:52:29,24-3-2,5,5,5,5,3,1,
8/27/2017 14:56:02,24-3-3,5,5,5,4,4,1,
8/27/2017 14:59:50,24-3-4,5,5,5,5,4,1,
8/27/2017 15:03:13,24-3-5,5,5,5,5,4,1,
8/27/2017 15:07:00,24-4-1,5,5,5,5,4,1,
8/27/2017 15:10:32,24-4-2,5,5,5,5,4,1,
8/27/2017 15:13:55,24-4-3,5,5,5,5,4,1,
8/27/2017 15:17:23,24-4-4,5,5,5,5,4,1,
8/27/2017 15:20:59,24-4-5,5,5,5,5,4,1,
8/27/2017 15:24:26,24-4-6,5,5,5,5,4,1,
8/27/2017 15:28:25,24-4-7,5,5,5,5,4,1,
8/27/2017 15:31:59,24-4-8,5,5,5,5,4,1,
8/27/2017 15:35:40,24-4-9,5,5,5,5,5,1,
8/28/2017 11:26:49,25-1-1,4,4,4,3,2,3,
8/28/2017 11:30:22,25-1-2,3,4,4,3,1,4,
8/28/2017 11:33:54,25-1-3,3,4,3,2,1,4,
8/28/2017 11:37:21,25-1-4,4,4,4,3,1,4,
8/28/2017 11:42:09,25-1-5,4,4,4,2,1,5,
8/28/2017 11:45:54,25-2-1,4,4,4,4,3,3,
8/28/2017 11:49:15,25-2-2,4,4,4,4,3,3,
8/28/2017 11:52:45,25-2-3,4,4,4,4,3,3,
8/28/2017 11:56:04,25-2-4,4,4,4,3,3,3,
8/28/2017 11:59:23,25-2-5,4,4,4,3,3,3,
8/28/2017 12:03:29,25-3-1,4,4,4,4,4,2,
8/28/2017 12:06:52,25-3-2,4,4,4,4,4,2,
8/28/2017 12:10:13,25-3-3,4,4,4,4,4,2,
8/28/2017 12:13:39,25-3-4,4,4,4,4,5,2,
8/28/2017 12:17:03,25-3-5,4,3,3,4,4,2,
8/28/2017 12:21:02,25-4-1,4,4,4,4,4,2,
8/28/2017 12:24:27,25-4-2,4,4,3,4,4,2,
8/28/2017 12:27:54,25-4-3,2,2,2,3,4,2,
8/28/2017 12:31:17,25-4-4,3,3,3,3,4,2,
8/28/2017 12:34:37,25-4-5,3,3,3,3,4,2,
8/28/2017 12:38:04,25-4-6,3,3,3,3,4,2,
8/28/2017 12:41:28,25-4-7,3,3,3,3,4,2,
8/28/2017 12:44:50,25-4-8,3,3,3,3,4,2,
8/28/2017 12:48:10,25-4-9,3,3,3,3,4,2,
8/28/2017 14:37:50,26-1-1,4,5,5,4,2,4,
8/28/2017 14:41:25,26-1-2,4,5,5,4,2,2,
8/28/2017 14:45:02,26-1-3,4,5,4,4,1,1,
8/28/2017 14:48:35,26-1-4,4,5,4,3,1,5,
8/28/2017 14:51:59,26-1-5,4,4,4,2,2,5,
8/28/2017 14:55:58,26-2-1,4,4,4,4,4,2,
8/28/2017 14:59:26,26-2-2,4,4,4,5,5,1,
8/28/2017 15:02:58,26-2-3,4,5,4,4,4,1,
8/28/2017 15:06:23,26-2-4,4,4,4,5,5,1,
8/28/2017 15:09:51,26-2-5,5,5,5,5,5,1,
8/28/2017 15:13:57,26-3-1,5,5,4,5,4,1,
8/28/2017 15:17:30,26-3-2,5,5,4,4,4,1,
8/28/2017 15:20:56,26-3-3,5,4,5,5,5,1,
8/28/2017 15:24:27,26-3-4,5,5,5,5,4,1,
8/28/2017 15:28:07,26-3-5,5,4,5,5,5,1,
8/28/2017 15:32:36,26-4-1,5,5,5,5,4,1,
8/28/2017 15:36:06,26-4-2,5,5,5,5,5,1,
8/28/2017 15:39:40,26-4-3,5,5,5,5,5,1,
8/28/2017 15:43:24,26-4-4,4,5,4,5,5,1,
8/28/2017 15:47:14,26-4-5,5,5,5,5,5,1,
8/28/2017 15:50:41,26-4-6,4,4,4,4,4,1,
8/28/2017 15:54:06,26-4-7,4,4,4,4,5,1,
8/28/2017 15:57:30,26-4-8,4,5,4,4,5,1,
8/28/2017 16:00:56,26-4-9,5,5,4,4,4,1,
8/29/2017 11:47:32,27-1-1,4,4,4,2,1,4,
8/29/2017 11:52:09,27-1-2,4,4,4,1,1,5,
8/29/2017 11:55:56,27-1-3,4,4,4,1,1,5,
8/29/2017 11:59:43,27-1-4,4,4,4,1,1,5,
8/29/2017 12:03:33,27-1-5,4,4,4,1,1,5,
8/29/2017 12:12:01,27-2-1,4,4,4,2,1,4,
8/29/2017 12:16:07,27-2-2,4,4,4,2,2,4,
8/29/2017 12:19:42,27-2-3,4,4,4,1,1,4,
8/29/2017 12:23:35,27-2-4,3,3,4,1,1,3,
8/29/2017 12:27:06,27-2-5,4,4,4,1,1,4,
8/29/2017 12:32:02,27-3-1,4,4,4,3,3,3,
8/29/2017 12:35:50,27-3-2,4,4,4,3,3,3,
8/29/2017 12:39:37,27-3-3,4,4,4,3,3,3,
8/29/2017 12:43:32,27-3-4,4,4,4,3,3,3,
8/29/2017 12:47:11,27-3-5,4,4,4,3,3,3,
8/29/2017 12:51:19,27-4-1,4,4,4,3,3,3,
8/29/2017 12:54:51,27-4-2,4,4,4,3,3,3,
8/29/2017 12:58:50,27-4-3,4,4,4,3,3,3,
8/29/2017 13:03:11,27-4-4,4,4,4,3,3,3,
8/29/2017 13:07:04,27-4-5,4,4,4,3,3,3,
8/29/2017 13:10:48,27-4-6,4,4,4,3,3,2,
8/29/2017 13:14:41,27-4-7,4,4,4,4,4,2,
8/29/2017 13:18:36,27-4-8,4,4,4,3,3,3,
8/29/2017 13:22:12,27-4-9,4,4,4,3,3,2,
8/31/2017 9:49:03,28-1-1,5,5,5,5,1,3,
8/31/2017 9:52:53,28-1-2,3,3,3,3,1,1,
8/31/2017 9:56:30,28-1-3,3,3,3,3,1,1,
8/31/2017 10:08:36,28-1-4,3,3,3,3,1,4,
8/31/2017 10:12:22,28-1-5,3,3,3,3,1,4,
8/31/2017 10:16:43,28-2-1,4,4,4,4,3,3,
8/31/2017 10:20:17,28-2-2,4,4,4,4,3,3,
8/31/2017 10:23:53,28-2-3,4,4,4,4,3,3,
8/31/2017 10:27:28,28-2-4,4,4,4,4,3,3,
8/31/2017 10:31:00,28-2-5,4,4,4,4,3,3,
8/31/2017 10:40:33,28-3-1,5,5,5,5,4,2,
8/31/2017 10:44:11,28-3-2,4,4,4,5,4,2,
8/31/2017 10:47:40,28-3-3,4,4,4,4,4,2,
8/31/2017 10:51:15,28-3-4,5,5,5,5,4,2,
8/31/2017 10:54:48,28-3-5,5,5,5,5,4,2,
8/31/2017 10:58:48,28-4-1,5,5,5,5,5,1,
8/31/2017 11:02:22,28-4-2,5,5,5,5,5,1,
8/31/2017 11:05:53,28-4-3,5,5,5,5,5,1,
8/31/2017 11:09:19,28-4-4,5,5,5,5,5,1,
8/31/2017 11:12:45,28-4-5,5,5,5,5,5,1,
8/31/2017 11:16:17,28-4-6,5,5,5,5,5,1,
8/31/2017 11:19:45,28-4-7,5,5,5,5,5,1,
8/31/2017 11:23:19,28-4-8,5,5,5,5,5,1,
8/31/2017 11:26:46,28-4-9,5,5,5,5,5,1,
9/8/2017 11:05:09,29-1-1,1,2,2,2,1,5,
9/8/2017 11:06:15,29-1-2,1,2,2,1,1,5,
9/8/2017 11:10:11,29-1-3,1,2,2,1,1,5,
9/8/2017 11:13:56,29-1-4,2,2,2,1,1,5,
9/8/2017 11:17:45,29-1-5,2,3,2,1,1,5,
9/8/2017 11:23:18,29-2-1,4,4,3,3,2,3,
9/8/2017 11:27:16,29-2-2,4,4,3,3,2,3,
9/8/2017 11:30:55,29-2-3,4,4,3,3,2,4,
9/8/2017 11:34:24,29-2-4,3,3,3,2,2,4,
9/8/2017 11:38:00,29-2-5,3,3,3,2,2,4,
9/8/2017 11:42:44,29-3-1,4,4,4,4,4,1,
9/8/2017 11:46:20,29-3-2,4,4,4,4,3,1,
9/8/2017 11:49:56,29-3-3,4,4,4,4,3,1,
9/8/2017 11:53:36,29-3-4,4,4,4,4,3,2,
9/8/2017 11:57:24,29-3-5,4,4,4,4,3,2,
9/8/2017 12:01:51,29-4-1,5,5,4,5,4,1,
9/8/2017 12:05:32,29-4-2,5,5,4,5,4,1,
9/8/2017 12:09:02,29-4-3,5,5,4,5,4,1,
9/8/2017 12:12:46,29-4-4,5,5,4,5,4,1,
9/8/2017 12:16:24,29-4-5,5,5,4,5,4,1,
9/8/2017 12:20:04,29-4-6,5,5,5,5,4,1,
9/8/2017 12:23:39,24-4-7,5,5,5,5,4,1,
9/8/2017 12:27:10,29-4-8,5,4,5,5,4,1,
9/8/2017 12:30:44,29-4-9,5,5,5,5,4,1,
10/3/2017 10:05:14,30-1-1,3,2,4,3,3,2,
10/3/2017 10:09:16,30-1-2,4,3,4,2,2,3,
10/3/2017 10:13:08,30-1-3,4,4,4,3,2,2,
10/3/2017 10:18:18,30-1-4,4,4,4,3,2,2,
10/3/2017 10:22:10,30-1-5,4,4,3,2,2,2,
10/3/2017 10:27:35,30-2-1,2,3,4,4,2,2,
10/3/2017 10:31:09,20-2-2,3,3,4,3,2,2,
10/3/2017 10:34:40,30-2-3,3,4,4,3,2,2,
10/3/2017 10:38:23,30-2-4,3,4,4,3,2,2,
10/3/2017 10:41:59,30-2-5,4,4,4,3,2,2,
10/3/2017 10:48:06,30-3-1,2,2,3,4,3,2,
10/3/2017 10:52:00,30-3-2,3,3,4,4,2,2,
10/3/2017 10:55:47,30-3-3,3,3,4,4,3,2,
10/3/2017 10:59:33,30-3-4,4,3,4,4,3,2,
10/3/2017 11:03:14,30-3-5,4,5,4,4,3,1,
10/3/2017 11:08:30,30-4-1,3,3,4,4,4,2,
10/3/2017 11:12:07,30-4-2,3,3,4,4,4,1,
10/3/2017 11:15:47,30-4-3,3,4,4,4,4,1,
10/3/2017 11:19:56,30-4-4,4,4,4,4,3,1,
10/3/2017 11:23:58,30-4-5,4,4,4,5,4,1,
10/3/2017 11:27:35,30-4-6,3,4,4,5,5,1,
10/3/2017 11:31:11,30-4-7,4,4,4,5,4,1,
10/3/2017 11:35:02,30-4-8,4,4,5,5,4,1,
10/3/2017 11:38:54,30-4-9,4,4,5,4,5,2,
11/16/2017 9:37:20,99,4,4,4,4,4,4,
11/16/2017 9:39:56,99-1-1,4,4,4,4,4,4,
11/16/2017 9:41:21,99-1-1,4,4,4,4,4,4,
11/16/2017 9:42:42,100-1-1,4,4,4,4,4,4,
11/16/2017 9:46:44,100-1-2,4,4,4,4,4,4,
11/16/2017 10:06:01,101,4,4,4,4,4,4,
11/16/2017 10:08:14,101-1-1,4,4,4,4,4,4,
11/16/2017 10:08:28,101-1-2,4,4,4,4,4,4,
11/16/2017 10:12:23,101-1-3,4,4,4,4,4,4,
11/16/2017 10:23:43,101-2-1,3,3,3,3,4,4,
11/16/2017 10:26:06,101-2-2,4,4,4,4,4,4,
12/4/2017 10:24:18,02-1-1,5,4,5,5,1,1,
12/4/2017 10:28:48,02-1-2,5,5,5,3,2,1,
12/4/2017 10:33:13,02-1-3,5,5,5,3,2,1,
12/4/2017 10:37:28,02-1-4,5,5,5,4,2,2,
12/4/2017 10:41:32,02-1-5,5,5,5,5,3,2,
12/4/2017 10:48:26,02-2-1,5,5,4,4,3,2,
12/4/2017 10:53:39,02-2-2,5,5,5,3,2,2,
12/4/2017 11:01:06,02-3-1,5,5,5,4,3,2,
12/4/2017 11:05:36,02-3-2,5,5,4,4,3,2,
12/4/2017 11:09:52,02-3-3,5,5,5,4,3,2,
12/4/2017 11:16:20,02-4-1,5,5,5,4,3,2,
12/4/2017 11:20:24,02-4-2,5,5,5,4,3,2,
12/4/2017 11:28:04,02-4-3,5,5,5,4,3,2,
12/4/2017 11:32:21,02-4-4,5,5,5,4,4,2,
12/4/2017 11:36:58,02-4-5,5,5,5,4,3,2,
12/4/2017 11:41:05,02-4-6,5,5,5,4,3,2,
12/4/2017 11:45:33,02-4-7,5,5,5,4,3,2,
12/4/2017 11:50:21,04-4-8,5,5,5,4,3,2,
12/4/2017 11:54:25,02-4-9,5,5,5,4,3,2,
12/4/2017 11:59:15,02-4-10,5,5,5,4,3,2,
12/4/2017 12:03:20,02-4-11,5,5,5,4,3,2,
12/4/2017 12:07:43,02-4-12,5,5,5,5,3,2,
12/4/2017 12:11:48,02-4-13,5,5,5,5,3,2,
12/4/2017 12:16:00,02-4-14,5,5,5,5,3,2,
12/5/2017 8:59:59,99-9-8,3,3,3,3,3,3,
12/5/2017 9:15:07,99-1-2,3,3,3,3,3,4,
12/5/2017 9:18:10,99-1-1,5,5,5,5,5,5,
12/5/2017 9:21:24,99-1-1,3,3,3,3,4,3,
12/5/2017 9:23:51,99-1-1,3,3,3,3,5,3,
12/15/2017 9:55:46,03-1-1,3,3,3,3,3,3,
12/15/2017 9:59:49,03-1-2,3,3,3,3,3,3,
12/15/2017 10:06:09,03-2-1,3,3,3,3,3,3,
12/15/2017 10:10:10,03-2-2,3,3,3,3,3,3,
12/15/2017 10:14:49,03-2-3,3,3,3,3,3,3,
12/15/2017 10:22:03,03-3-1,3,3,3,3,3,3,
12/15/2017 10:26:11,03-3-2,3,3,3,3,3,3,
12/15/2017 10:30:29,03-3-3,3,3,3,3,3,3,
12/15/2017 10:36:24,03-4-1,3,3,3,3,3,3,
12/15/2017 10:40:22,03-4-2,3,3,3,3,3,3,
12/15/2017 10:44:35,03-4-3,3,3,3,4,4,5,
12/15/2017 10:49:00,03-4-4,3,3,3,3,3,3,
12/15/2017 10:52:56,03-4-5,3,1,1,1,1,1,
12/15/2017 10:53:33,03-4-5,3,4,5,5,5,5,
12/15/2017 10:57:28,03-4-6,4,3,4,5,4,4,
12/15/2017 11:01:16,03-4-7,5,4,4,5,5,4,
12/15/2017 11:05:15,03-4-8,4,4,4,4,5,5,
12/15/2017 11:09:12,03-4-9,4,4,5,4,5,5,
12/15/2017 11:13:03,03-4-10,4,4,5,4,5,5,
12/15/2017 11:17:54,03-4-11,3,4,3,3,4,3,
12/15/2017 11:21:54,03-4-12,5,5,5,5,5,5,
12/15/2017 11:25:57,03-4-13,4,4,5,5,4,4,
12/15/2017 11:29:56,03-4-14,4,4,4,4,4,4,
12/15/2017 11:33:49,03-4-16,5,5,5,5,5,5,
12/15/2017 11:37:54,03-4-16,5,5,5,5,5,5,
1/18/2018 9:41:09,04-1-1,4,4,4,4,2,3,
1/18/2018 9:45:45,04-1-2,4,4,4,3,2,3,
1/18/2018 9:49:48,04-1-3,4,4,4,4,2,2,
1/18/2018 9:55:07,04-2-1,4,4,4,4,2,2,
1/18/2018 9:59:01,04-2-2,4,4,4,4,3,2,
1/18/2018 10:02:59,04-2-3,4,4,4,4,2,2,
1/18/2018 10:08:22,04-3-1,4,4,4,4,3,2,
1/18/2018 10:12:24,04-3-2,4,4,4,4,3,2,
1/18/2018 10:18:56,04-4-1,4,4,4,4,3,2,
1/18/2018 10:23:18,04-4-2,4,4,4,4,3,2,
1/18/2018 10:27:19,04-4-3,4,4,4,4,3,2,
1/18/2018 10:31:23,04-4-4,4,4,4,4,3,2,
1/18/2018 10:35:24,04-4-5,4,4,4,4,3,2,
1/18/2018 10:39:30,04-4-6,4,4,4,4,3,2,
1/18/2018 10:43:35,04-4-7,4,4,4,4,3,2,
1/18/2018 10:47:38,04-4-8,4,4,4,4,3,2,
1/18/2018 10:52:18,04-4-9,4,4,4,4,3,2,
1/18/2018 10:56:22,04-4-10,4,4,4,4,3,2,
1/18/2018 11:00:27,04-4-11,4,4,4,4,3,2,
1/18/2018 11:04:42,04-4-12,4,4,4,4,3,2,
1/18/2018 11:08:51,04-4-13,4,4,4,4,3,2,
1/18/2018 11:12:52,04-4-14,4,4,4,3,3,2,
1/18/2018 11:16:55,04-4-15,4,4,4,3,3,2,
1/18/2018 11:20:39,04-4-16,4,4,4,3,2,2,
1/30/2018 14:11:46,05-1-1,5,5,5,2,1,4,
1/30/2018 14:15:54,05-1-2,4,4,4,2,1,4,
1/30/2018 14:19:55,05-1-3,5,4,5,2,1,5,
1/30/2018 14:24:17,05-2-1,5,5,5,3,2,3,
1/30/2018 14:28:16,05-2-2,5,5,5,3,2,3,
1/30/2018 14:32:11,05-2-3,5,5,5,2,2,5,
1/30/2018 14:37:37,05-2-4,4,4,5,4,3,4,
1/30/2018 14:41:47,05-2-5,5,5,5,3,2,4,
1/30/2018 14:46:54,05-3-1,5,5,4,4,4,3,
1/30/2018 14:50:58,05-3-2,5,5,4,4,4,3,
1/30/2018 14:55:58,05-4-1,5,5,5,5,5,1,
1/30/2018 14:59:54,05-4-2,5,4,5,5,3,1,
1/30/2018 15:03:51,05-4-3,5,4,5,5,5,2,
1/30/2018 15:07:52,05-4-4,5,3,5,5,4,2,
1/30/2018 15:11:53,05-4-5,5,5,5,4,3,2,
1/30/2018 15:16:16,05-4-6,5,5,5,3,5,1,
1/30/2018 15:20:21,05-4-7,4,4,5,5,3,2,
1/30/2018 15:24:56,05-4-8,3,4,5,5,4,3,
1/30/2018 15:29:06,05-4-9,4,4,5,4,2,2,
1/30/2018 15:33:16,05-4-10,3,3,5,4,3,3,
1/30/2018 15:37:14,05-4-11,3,3,5,5,3,4,
1/30/2018 15:41:38,05-4-12,4,4,5,5,2,3,
1/30/2018 15:45:28,05-4-13,3,3,5,5,2,4,
1/30/2018 15:49:25,05-4-14,3,3,5,5,2,4,
2/1/2018 9:37:21,06-1-1,2,2,1,1,1,1,
2/1/2018 9:41:20,06-1-2,4,4,1,1,1,1,
2/1/2018 9:46:42,06-1-3,5,5,4,1,1,4,
2/1/2018 9:51:09,06-2-1,5,5,4,3,1,2,
2/1/2018 9:55:16,06-2-2,4,4,4,2,1,3,
2/1/2018 10:00:02,06-3-1,5,5,5,3,2,1,
2/1/2018 10:05:22,06-3-2,5,5,4,3,2,2,
2/1/2018 10:10:02,06-4-1,5,5,5,4,3,1,
2/1/2018 10:14:02,06-4-2,5,5,4,3,3,1,
2/1/2018 10:18:02,06-4-3,4,4,4,3,3,1,
2/1/2018 10:21:52,06-4-4,5,5,5,3,3,1,
2/1/2018 10:25:49,06-4-5,5,5,5,3,3,1,
2/1/2018 10:29:49,06-4-6,5,5,5,2,2,2,
2/1/2018 10:33:37,06-4-7,5,5,5,2,2,1,
2/1/2018 10:37:31,06-4-8,5,5,5,2,2,2,
2/1/2018 10:41:34,06-4-9,5,5,5,2,2,2,
2/1/2018 10:45:27,06-4-10,5,5,5,2,2,2,
2/1/2018 10:49:14,06-4-11,5,5,5,2,2,2,
2/1/2018 10:53:02,06-4-12,5,5,5,2,1,2,
2/1/2018 10:56:46,06-4-13,5,5,5,2,1,2,
2/1/2018 11:00:34,06-4-14,4,4,4,1,1,3,
2/1/2018 11:04:29,06-4-15,4,3,4,1,1,3,
2/1/2018 11:08:25,06-4-16,3,3,3,1,1,3,
2/1/2018 11:12:13,06-4-17,3,3,3,1,1,5,